ver 1
define OPT_FLOAT_55 = 55
define OPT_INT_61 = 61
define OPT_INT_58 = 58
define OPT_INT_55 = 55
define OPT_INT_62 = 62
define OPT_INT_49 = 49
define OPT_ID_2 = 2
define OPT_INT_54 = 54
define OPT_INT_53 = 53
define OPT_FLOAT_54 = 54
define OPT_INT_30 = 30
define OPT_INT_48 = 48
define OPT_INT_45 = 45
define OPT_INT_46 = 46
define OPT_INT_44 = 44
define OPT_INT_47 = 47

object oc_boss_area
id 762
rotation 0,000 1,000 0,000 0,000
position -32,469 0,114 -157,625 0,000
item_flag 00 00 00 00 00 00 00 00 00 00 00 00 00 00 00 00 00 00 00 00 00 00 00 00

trigger Transporter
id 765
rotation 0,000 0,866 0,000 0,500
position -55,313 0,000 216,875 0,000
item_flag 00 00 00 00 00 00 E0 40 00 00 00 00 00 00 00 00 00 00 00 00

object ob_9900_0303
id 766
rotation 0,000 0,000 0,000 1,000
position -35,563 1,456 114,938 0,000
item_flag 12 00 00 00 00 00 00 00 00 00 00 00 00 00 00 00 00 00 00 00 05 00 00 00
byte_flag 02 00 00 00 00 00 00 00 00 00 00 00 00 00 08 00 00 79 BA E8
OPT_INT_47 -1
OPT_INT_44 1
OPT_INT_46 1
OPT_INT_45 0
OPT_INT_48 9

object oa_enemy_base
id 763
rotation 0,000 1,000 0,000 0,000
position -32,469 0,114 -157,625 0,000
item_flag 07 00 00 00 00 00 00 00 00 00 00 00 00 00 00 00 02 00 00 00 04 00 00 00
byte_flag 02 00 00 00 00 00 00 00 00 00 00 00 00 00 00 00 00 79 BA E8
OPT_INT_47 -1
OPT_INT_44 1
OPT_INT_46 0
OPT_INT_30 1
OPT_FLOAT_54 0

object oa_telepipe_clear
id 769
rotation 0,000 0,000 0,000 1,000
position 0,000 0,000 0,000 0,000
item_flag 10 00 00 00 00 00 00 00 00 00 00 00 00 00 00 00 00 00 00 00 04 00 00 00
byte_flag 02 00 00 00 00 00 00 00 00 00 00 00 00 00 08 00 40 38 F7 8B
OPT_INT_47 -1
OPT_INT_44 1
OPT_INT_46 0
OPT_INT_53 2
OPT_INT_54 0
OPT_ID_2 0

object oa_transfer_sync
id 767
rotation 0,000 1,000 0,000 0,000
position -31,938 -0,184 -111,125 0,000
item_flag 11 00 00 00 00 00 00 00 00 00 00 00 00 00 00 00 00 00 00 00 04 00 00 00
byte_flag 02 00 00 00 00 00 00 00 00 00 00 00 00 00 00 00 00 00 00 00
OPT_INT_47 7
OPT_INT_44 1
OPT_INT_46 1
OPT_INT_49 1
OPT_INT_54 1
OPT_INT_62 1
OPT_INT_55 -1
OPT_INT_53 0
OPT_INT_58 1
OPT_INT_61 1
OPT_FLOAT_55 4

object oa_transfer_sync
id 768
rotation 0,000 0,000 0,000 1,000
position -43,156 1,546 111,250 0,000
item_flag 11 00 00 00 00 00 00 00 00 00 00 00 00 00 00 00 00 00 00 00 04 00 00 00
byte_flag 02 00 00 00 00 00 00 00 00 00 00 00 00 00 00 00 00 00 00 00
OPT_INT_47 17
OPT_INT_44 1
OPT_INT_46 1
OPT_INT_49 1
OPT_INT_54 0
OPT_INT_62 0
OPT_INT_55 -1
OPT_INT_53 0
OPT_INT_58 1
OPT_INT_61 1
OPT_INT_30 1
OPT_FLOAT_55 4

