ver 1

define OPT_INT_52 = 52
define OPT_INT_53 = 53
define OPT_INT_59 = 59
define OPT_INT_48 = 48
define OPT_INT_45 = 45
define OPT_INT_46 = 46
define OPT_INT_44 = 44
define OPT_INT_47 = 47

colision EventCollision
id 24
rotation 0,000 0,000 0,000 1,000
position 0,000 0,000 27,000 0,000
byte_flag 01 00 00 00 03 00 00 00 01 00 00 00 10 00 00 00 00 00 00 00 00 00 00 00 00 00 70 41 00 00 70 41 00 00 A0 41 00 00 00 00 00 00 00 00 00 00 00 00 00 00 00 00 04 30 6F 8E 03 00 00 00 00 00 00 00 00 00 40 40 00 00 70 C1

object ob_0150_0007
id 14
rotation 0,000 -0,383 0,000 0,924
position 4,754 0,173 -7,977 0,000
item_flag 00 00 00 00 00 00 00 00 00 00 00 00 00 00 00 00 00 00 00 00 04 00 00 00
byte_flag 02 00 00 00 00 00 00 00 00 00 00 00 00 00 08 00 40 80 43 72
OPT_INT_47 -1
OPT_INT_44 1
OPT_INT_46 1
OPT_INT_45 0
OPT_INT_48 5

object ob_0150_0004
id 9
rotation 0,000 0,924 0,000 -0,383
position 4,594 0,073 9,094 0,000
item_flag 00 00 00 00 00 00 00 00 00 00 00 00 00 00 00 00 00 00 00 00 04 00 00 00
byte_flag 02 00 00 00 00 00 00 00 00 00 00 00 00 00 08 00 40 80 43 72
OPT_INT_47 -1
OPT_INT_44 1
OPT_INT_46 1
OPT_INT_59 3
OPT_INT_45 0
OPT_INT_48 5

object oa_campship_exit
id 8
rotation 0,000 0,000 0,000 1,000
position 0,000 0,000 -13,500 0,000
item_flag 00 00 00 00 00 00 00 00 00 00 00 00 00 00 00 00 00 00 00 00 04 00 00 00
byte_flag 02 00 00 00 00 00 00 00 00 00 00 00 00 00 08 00 40 80 43 72
OPT_INT_47 -1
OPT_INT_44 1
OPT_INT_46 1
OPT_INT_45 0
OPT_INT_48 5

object ob_0150_0009
id 11
rotation 0,000 1,000 0,000 0,000
position 0,000 -5,000 26,000 0,000
item_flag 00 00 00 00 00 00 00 00 00 00 00 00 00 00 00 00 00 00 00 00 04 00 00 00
byte_flag 02 00 00 00 00 00 00 00 00 00 00 00 00 00 08 00 40 80 43 72
OPT_INT_47 -1
OPT_INT_44 1
OPT_INT_46 1
OPT_INT_45 0
OPT_INT_48 5

object ob_0150_0006
id 10
rotation 0,000 0,383 0,000 0,924
position -4,555 0,173 -7,777 0,000
item_flag 00 00 00 00 00 00 00 00 00 00 00 00 00 00 00 00 00 00 00 00 04 00 00 00
byte_flag 02 00 00 00 00 00 00 00 00 00 00 00 00 00 08 00 40 80 43 72
OPT_INT_47 -1
OPT_INT_44 1
OPT_INT_46 1
OPT_INT_45 0
OPT_INT_48 5

object ob_0150_0001
id 7
rotation 0,000 0,924 0,000 0,383
position -4,555 0,073 9,047 0,000
item_flag 00 00 00 00 00 00 00 00 00 00 00 00 00 00 00 00 00 00 00 00 04 00 00 00
byte_flag 02 00 00 00 00 00 00 00 00 00 00 00 00 00 08 00 40 80 43 72
OPT_INT_47 -1
OPT_INT_44 1
OPT_INT_46 1
OPT_INT_45 0
OPT_INT_48 5

trigger Transporter
id 6
rotation 0,000 0,000 0,000 1,000
position 0,000 -5,000 26,000 0,000
item_flag FF FF FF FF 00 00 10 41 00 00 C0 3F 00 00 00 00 01 00 00 00

object ob_0150_0000
id 17
rotation 0,000 0,000 0,000 1,000
position 0,000 3,799 26,000 0,000
item_flag 00 00 00 00 00 00 00 00 00 00 00 00 00 00 00 00 00 00 00 00 04 00 00 00
byte_flag 02 00 00 00 00 00 00 00 00 00 00 00 00 00 08 00 40 80 43 72
OPT_INT_47 -1
OPT_INT_44 1
OPT_INT_46 1
OPT_INT_45 0
OPT_INT_48 5

object ob_0150_0017
id 16
rotation 0,000 0,707 0,000 0,707
position -6,848 0,000 0,630 0,000
item_flag 00 00 00 00 00 00 00 00 00 00 00 00 00 00 00 00 00 00 00 00 04 00 00 00
byte_flag 02 00 00 00 00 00 00 00 00 00 00 00 00 00 08 00 40 80 43 72
OPT_INT_47 -1
OPT_INT_44 1
OPT_INT_46 1
OPT_INT_45 0
OPT_INT_48 5

npc Npc_02
id 18
rotation 0,000 -0,383 0,000 0,924
position 5,699 0,100 -5,797 0,000

object ob_0150_0008
id 13
rotation 0,000 0,707 0,000 -0,707
position 6,848 0,000 0,630 0,000
item_flag 00 00 00 00 00 00 00 00 00 00 00 00 00 00 00 00 00 00 00 00 04 00 00 00
byte_flag 02 00 00 00 00 00 00 00 00 00 00 00 00 00 08 00 40 80 43 72
OPT_INT_47 -1
OPT_INT_44 1
OPT_INT_46 1
OPT_INT_45 0
OPT_INT_48 5

object oa_start_sync
id 12
rotation 0,000 0,000 0,000 1,000
position 0,000 3,699 14,398 0,000
item_flag 29 00 00 00 00 00 00 00 00 00 00 00 00 00 00 00 00 00 00 00 04 00 00 00
byte_flag 02 00 00 00 00 00 00 00 00 00 00 00 00 00 08 00 00 00 00 00
OPT_INT_47 -1
OPT_INT_44 1
OPT_INT_46 1
OPT_INT_53 1658979904

object ob_9900_0426
id 15
rotation 0,000 0,000 0,000 1,000
position 0,000 -0,100 -4,000 0,000
item_flag 00 00 00 00 00 00 00 00 00 00 00 00 00 00 00 00 00 00 00 00 04 00 00 00
byte_flag 02 00 00 00 00 00 00 00 00 00 00 00 00 00 08 00 40 80 43 72
OPT_INT_47 -1
OPT_INT_44 1
OPT_INT_46 1
OPT_INT_45 0
OPT_INT_48 5
OPT_INT_52 0

