change floor

000000: 1C 00 00 00 03 05 00 00 4D 17 00 00 00 00 00 00     ........M.......
000010: 10 00 00 00 00 00 00 00 00 00 00 00     ............

000000: 1C 00 00 00 03 05 00 00 65 1D 00 00 00 00 00 00     ........e.......
000010: 10 00 00 00 02 00 00 00 03 00 00 00     ............

000000: 1C 00 00 00 03 05 00 00 65 1D 00 00 00 00 00 00     ........e.......
000010: 10 00 00 00 03 00 00 00 01 00 00 00     ............
