New mission/team created

game name: magic+UniString
game pass: magic+UniString
comment?: magic+unistring
options: magic+options?


000000: 58 00 00 00 0E 0C 04 00 52 11 00 00 00 00 00 00     X.......R.......
000010: 52 11 00 00 00 00 00 00 52 11 00 00 00 00 00 00     R.......R.......
000020: 67 11 00 00 53 00 75 00 62 00 64 00 75 00 65 00     g...S.u.b.d.u.e.
000030: 20 00 5A 00 61 00 20 00 4F 00 6F 00 64 00 61 00      .Z.a. .O.o.d.a.
000040: 6E 00 20 00 28 00 4E 00 29 00 00 00 01 4B 00 00     n. .(.N.)....K..
000050: 00 00 00 00 00 00 00 00     ........
