skillstats = [
[0,  1,  2,  3,  4,  5,  6,  7,  8,  9, 10], //PP
[0,  3,  6, 10, 14, 18, 23, 28, 34, 40, 50], //X Up Lv 1
[0,  4,  9, 14, 19, 25, 31, 39, 50, 62, 75], //X Up Lv 2, Aptitude (SU)
[0,  5, 11, 18, 26, 35, 45, 56, 68, 81,100], //X Up Lv 3
[0, 40, 60, 80,100,120,  0,  0,  0,  0,  0], //X High Up
[0, 20, 25, 30, 35, 50, 60, 70, 80, 90,100], //HP (High) Up (SU)
[0, 20, 25, 30, 35, 50, 65, 80,100,120,150] //All X (High) Up (SU)
];

classfullname = ["Hunter","Fighter","Ranger","Gunner","Force","Techer","Braver","Bouncer","Summoner"];
classabrname = ["HU","FI","RA","GU","FO","TE","BR","BO","SU"];
racename = ["mar","marl","newm","newearl","cast","caseal","dewm","dewearl"];

//  HP   PP   SATK RATK TATK SDEF RDEF TDEF APT
racemod = [
[ 0,1.05,1.00,1.04,1.03,1.00,1.05,1.00,1.00,1.05], //M Human
[ 1,1.04,1.00,1.00,1.03,1.04,1.00,1.00,1.05,1.06], //F Human
[ 2,0.95,1.00,1.00,1.02,1.08,1.00,1.05,1.00,1.04], //F Newman
[ 3,0.94,1.00,1.00,1.02,1.10,1.00,1.00,1.05,1.04], //F Newman
[ 4,1.07,1.00,1.05,1.04,0.96,1.05,1.00,0.95,1.07], //M Cast
[ 5,1.06,1.00,1.04,1.05,0.96,1.00,1.05,0.95,1.07], //F Cast
[ 6,0.96,1.00,1.07,1.04,1.05,1.00,1.00,1.00,1.05], //M Dewman
[ 7,0.95,1.00,1.06,1.05,1.05,1.00,1.00,1.00,1.06] //F Dewman
];

//  HP PP SA RA TA SD RD TD AP
classboost = [
[ 0,50, 0, 0,15, 0,40, 0, 0, 0], //HU
[ 1, 0, 2,50, 0,15, 0, 0,10, 0], //FI
[ 2, 0, 0, 0,20,15, 0,40, 0, 0], //RA
[ 3, 0, 2,15,50, 0,10, 0, 0, 0], //GU
[ 4, 0, 0, 0,15,20, 0, 0,40, 0], //FO
[ 5, 0, 2,15, 0,50, 0,10, 0, 0], //TE
[ 6, 0, 2,20,20, 0, 0, 0, 0,30], //BR
[ 7, 0, 2,20, 0,20, 0, 0, 0,30], //BO
[ 8,10, 0, 0, 0, 0,40,40,40, 0] //SU
];

//Lv EXPTNL HP PP SATK RATK TATK SDEF RDEF TDEF APT
//0  1      2  3  4    5    6    7    8    9    10
stats = [
[ //HU
[0,0,0,0,0,0,0,0,0,0,0],
[1,120,200,100,90,81,72,90,72,72,91],
[2,480,206,100,100,90,80,100,80,80,97],
[3,1130,212,100,110,99,88,110,88,88,103],
[4,2120,218,100,120,108,96,120,96,96,108],
[5,3500,224,100,130,117,104,130,104,104,114],
[6,5320,230,100,140,126,112,140,112,112,120],
[7,7630,236,100,150,135,120,150,120,120,125],
[8,10480,242,100,160,144,128,160,128,128,131],
[9,13920,248,100,170,153,136,170,136,136,137],
[10,18000,254,100,180,162,144,180,144,144,143],
[11,23220,260,100,190,171,152,190,152,152,148],
[12,29980,266,100,200,180,160,200,160,160,154],
[13,38580,272,100,210,189,168,210,168,168,160],
[14,49320,278,100,220,198,176,220,176,176,165],
[15,62500,284,100,230,207,184,230,184,184,171],
[16,78420,290,100,240,216,192,240,192,192,177],
[17,97380,296,100,250,225,200,250,200,200,182],
[18,119680,302,100,260,234,208,260,208,208,188],
[19,145620,308,100,270,243,216,270,216,216,194],
[20,176000,314,100,280,252,224,280,224,224,200],
[21,209820,320,100,284,256,227,284,227,227,202],
[22,247160,326,100,288,259,230,288,230,230,205],
[23,288100,332,100,292,263,234,292,234,234,208],
[24,332720,338,100,296,266,237,296,237,237,211],
[25,381100,344,100,300,270,240,300,240,240,214],
[26,433320,350,100,304,274,243,304,243,243,217],
[27,489480,356,100,308,277,246,308,246,246,219],
[28,549680,362,100,312,281,250,312,250,250,222],
[29,614120,368,100,316,284,253,316,253,253,225],
[30,685000,374,100,320,288,256,320,256,256,228],
[31,757320,380,100,324,292,259,324,259,259,231],
[32,831130,386,100,328,295,262,328,262,262,234],
[33,906480,392,100,332,299,266,332,266,266,237],
[34,983420,398,100,336,302,269,336,269,269,239],
[35,1062000,404,100,340,306,272,340,272,272,242],
[36,1142320,410,100,344,310,275,344,275,275,245],
[37,1224480,416,100,348,313,278,348,278,278,248],
[38,1308580,422,100,352,317,282,352,282,282,251],
[39,1394720,428,100,356,320,285,356,285,285,254],
[40,1486140,434,100,360,324,288,360,288,288,257],
[41,1610000,440,100,364,328,291,364,291,291,259],
[42,1770000,446,100,368,331,294,368,294,294,262],
[43,1980000,452,100,372,335,298,372,298,298,265],
[44,2250000,458,100,376,338,301,376,301,301,268],
[45,2670000,464,100,380,342,304,380,304,304,271],
[46,3250000,470,100,384,346,307,384,307,307,274],
[47,4000000,476,100,388,349,310,388,310,310,276],
[48,4930000,482,100,392,353,314,392,314,314,279],
[49,6050000,488,100,396,356,317,396,317,317,282],
[50,7200500,494,100,400,360,321,400,320,320,285],
[51,8382000,500,100,404,363,324,404,324,324,288],
[52,9595000,506,100,408,368,327,408,327,327,291],
[53,10840000,512,100,412,372,330,412,330,330,294],
[54,12117500,518,100,416,376,333,416,333,333,297],
[55,13428000,524,100,420,380,336,420,336,336,300],
[56,14772000,530,100,424,384,339,424,339,339,303],
[57,16150000,536,100,428,388,342,428,342,342,306],
[58,17562500,542,100,432,392,345,432,345,345,309],
[59,19010000,548,100,436,396,348,436,348,348,312],
[60,20457500,554,100,440,400,351,440,351,351,315],
[61,22012000,560,100,444,404,354,444,354,354,318],
[62,23567500,566,100,448,408,357,448,357,357,321],
[63,25160000,572,100,452,412,360,452,360,360,324],
[64,26790000,578,100,456,416,363,456,363,363,327],
[65,28458000,584,100,460,420,366,460,366,366,330],
[66,30164500,590,100,464,424,369,464,369,369,333],
[67,31910000,596,100,468,428,372,468,372,372,336],
[68,33695000,602,100,472,432,375,472,375,375,339],
[69,35520000,608,100,476,436,378,476,378,378,342],
[70,37385500,614,100,480,440,381,480,381,381,345],
[71,39292000,620,100,484,444,384,484,384,384,348],
[72,41240000,626,100,488,448,387,488,387,387,351],
[73,43230000,632,100,492,452,390,492,390,390,354],
[74,45262500,638,100,496,456,393,496,393,393,357],
[75,47338000,644,100,500,460,396,500,396,396,360],
[76,49457000,650,100,504,464,399,504,399,399,363],
[77,51620000,656,100,508,468,402,508,402,402,366],
[78,53827500,662,100,512,472,405,512,405,405,369],
[79,56080000,668,100,516,476,408,516,408,408,372],
[80,58378000,674,100,520,480,411,520,411,411,375],
[81,60722000,680,100,524,484,414,524,414,414,378],
[82,63112500,686,100,528,488,417,528,417,417,381],
[83,65550000,692,100,532,492,420,532,420,420,384],
[84,68035000,698,100,536,496,423,536,423,423,387],
[85,70568000,704,100,540,500,426,540,426,426,390],
[86,73149500,710,100,544,504,429,544,429,429,393],
[87,75780000,716,100,548,508,432,548,432,432,396],
[88,78460000,722,100,552,512,435,552,435,435,399],
[89,81190000,728,100,556,516,438,556,438,438,402],
[90,83970500,734,100,560,520,441,560,441,441,405],
[91,86802000,740,100,564,524,444,564,444,444,408],
[92,89685000,746,100,568,528,447,568,447,447,411],
[93,92620000,752,100,572,532,450,572,450,450,414],
[94,95607500,758,100,576,536,453,576,453,453,417],
[95,98648000,764,100,580,540,456,580,456,456,420],
[96,101742000,770,100,584,544,459,584,459,459,423],
[97,104890000,776,100,588,548,462,588,462,462,426],
[98,108092500,782,100,592,552,465,592,465,465,429],
[99,111350000,788,100,596,556,468,596,468,468,432],
[100,114663000,794,100,600,560,471,600,471,471,435]
],
[ //FI
[0,0,0,0,0,0,0,0,0,0,0],
[1,120,190,100,90,72,81,90,72,72,91],
[2,480,195,100,100,80,90,100,80,80,97],
[3,1130,200,100,110,88,99,110,88,88,103],
[4,2120,205,100,120,96,108,120,96,96,108],
[5,3500,210,100,130,104,117,130,104,104,114],
[6,5320,215,100,140,112,126,140,112,112,120],
[7,7630,220,100,150,120,135,150,120,120,125],
[8,10480,225,100,160,128,144,160,128,128,131],
[9,13920,230,100,170,136,153,170,136,136,137],
[10,18000,235,100,180,144,162,180,144,144,143],
[11,23220,240,100,190,152,171,190,152,152,148],
[12,29980,245,100,200,160,180,200,160,160,154],
[13,38580,250,100,210,168,189,210,168,168,160],
[14,49320,255,100,220,176,198,220,176,176,165],
[15,62500,260,100,230,184,207,230,184,184,171],
[16,78420,265,100,240,192,216,240,192,192,177],
[17,97380,270,100,250,200,225,250,200,200,182],
[18,119680,275,100,260,208,234,260,208,208,188],
[19,145620,280,100,270,216,243,270,216,216,194],
[20,176000,285,100,280,224,252,280,224,224,200],
[21,209820,290,100,284,227,256,284,227,227,202],
[22,247160,295,100,288,230,259,288,230,230,205],
[23,288100,300,100,292,234,263,292,234,234,208],
[24,332720,305,100,296,237,266,296,237,237,211],
[25,381100,310,100,300,240,270,300,240,240,214],
[26,433320,315,100,304,243,274,304,243,243,217],
[27,489480,320,100,308,246,277,308,246,246,219],
[28,549680,325,100,312,250,281,312,250,250,222],
[29,614120,330,100,316,253,284,316,253,253,225],
[30,685000,335,100,320,256,288,320,256,256,228],
[31,757320,340,100,324,259,292,324,259,259,231],
[32,831130,345,100,328,262,295,328,262,262,234],
[33,906480,350,100,332,266,299,332,266,266,237],
[34,983420,355,100,336,269,302,336,269,269,239],
[35,1062000,360,100,340,272,306,340,272,272,242],
[36,1142320,365,100,344,275,310,344,275,275,245],
[37,1224480,370,100,348,278,313,348,278,278,248],
[38,1308580,375,100,352,282,317,352,282,282,251],
[39,1394720,380,100,356,285,320,356,285,285,254],
[40,1486140,385,100,360,288,324,360,288,288,257],
[41,1610000,390,100,364,291,328,364,291,291,259],
[42,1770000,395,100,368,294,331,368,294,294,262],
[43,1980000,400,100,372,298,335,372,298,298,265],
[44,2250000,405,100,376,301,338,376,301,301,268],
[45,2670000,410,100,380,304,342,380,304,304,271],
[46,3250000,415,100,384,307,346,384,307,307,274],
[47,4000000,420,100,388,310,349,388,310,310,276],
[48,4930000,425,100,392,314,353,392,314,314,279],
[49,6050000,430,100,396,317,356,396,317,317,282],
[50,7200500,435,100,400,320,360,400,320,320,285],
[51,8382000,440,100,404,323,364,404,323,323,288],
[52,9595000,445,100,408,326,368,408,326,326,291],
[53,10840000,450,100,412,329,372,412,329,329,294],
[54,12117500,455,100,416,332,376,416,332,332,297],
[55,13428000,460,100,420,335,380,420,335,335,300],
[56,14772000,465,100,424,338,384,424,338,338,303],
[57,16150000,470,100,428,341,388,428,341,341,306],
[58,17562500,475,100,432,344,392,432,344,344,309],
[59,19010000,480,100,436,347,396,436,347,347,312],
[60,20457500,485,100,440,350,400,440,350,350,315],
[61,22012000,490,100,444,353,404,444,353,353,318],
[62,23567500,495,100,448,356,408,448,356,356,321],
[63,25160000,500,100,452,359,412,452,359,359,324],
[64,26790000,505,100,456,362,416,456,362,362,327],
[65,28458000,510,100,460,365,420,460,365,365,330],
[66,30164500,515,100,464,368,424,464,368,368,333],
[67,31910000,520,100,468,371,428,468,371,371,336],
[68,33695000,525,100,472,374,432,472,374,374,339],
[69,35520000,530,100,476,377,436,476,377,377,342],
[70,37385500,535,100,480,380,440,480,380,380,345],
[71,39292000,540,100,484,383,444,484,383,383,348],
[72,41240000,545,100,488,386,448,488,386,386,351],
[73,43230000,550,100,492,389,452,492,389,389,354],
[74,45262500,555,100,496,392,456,496,392,392,357],
[75,47338000,560,100,500,395,460,500,395,395,360],
[76,49457000,565,100,504,398,464,504,398,398,363],
[77,51620000,570,100,508,401,468,508,401,401,366],
[78,53827500,575,100,512,404,472,512,404,404,369],
[79,56080000,580,100,516,407,476,516,407,407,372],
[80,58378000,585,100,520,410,480,520,410,410,375],
[81,60722000,590,100,524,413,484,524,413,413,378],
[82,63112500,595,100,528,416,488,528,416,416,381],
[83,65550000,600,100,532,419,492,532,419,419,384],
[84,68035000,605,100,536,422,496,536,422,422,387],
[85,70568000,610,100,540,425,500,540,425,425,390],
[86,73149500,615,100,544,428,504,544,428,428,393],
[87,75780000,620,100,548,431,508,548,431,431,396],
[88,78460000,625,100,552,434,512,552,434,434,399],
[89,81190000,630,100,556,437,516,556,437,437,402],
[90,83970500,635,100,560,440,520,560,440,440,405],
[91,86802000,640,100,564,443,524,564,443,443,408],
[92,89685000,645,100,568,446,528,568,446,446,411],
[93,92620000,650,100,572,449,532,572,449,449,414],
[94,95607500,655,100,576,452,536,576,452,452,417],
[95,98648000,660,100,580,455,540,580,455,455,420],
[96,101742000,665,100,584,458,544,584,458,458,423],
[97,104890000,670,100,588,461,548,588,461,461,426],
[98,108092500,675,100,592,464,552,592,464,464,429],
[99,111350000,680,100,596,467,556,596,467,467,432],
[100,114663000,685,100,600,470,560,600,470,470,435]
],
[ //RA
[0,0,0,0,0,0,0,0,0,0,0],
[1,120,180,100,81,90,72,72,90,72,91],
[2,480,185,100,90,100,80,80,100,80,97],
[3,1130,190,100,99,110,88,88,110,88,103],
[4,2120,195,100,108,120,96,96,120,96,108],
[5,3500,200,100,117,130,104,104,130,104,114],
[6,5320,205,100,126,140,112,112,140,112,120],
[7,7630,210,100,135,150,120,120,150,120,125],
[8,10480,215,100,144,160,128,128,160,128,131],
[9,13920,220,100,153,170,136,136,170,136,137],
[10,18000,225,100,162,180,144,144,180,144,143],
[11,23220,230,100,171,190,152,152,190,152,148],
[12,29980,235,100,180,200,160,160,200,160,154],
[13,38580,240,100,189,210,168,168,210,168,160],
[14,49320,245,100,198,220,176,176,220,176,165],
[15,62500,250,100,207,230,184,184,230,184,171],
[16,78420,255,100,216,240,192,192,240,192,177],
[17,97380,260,100,225,250,200,200,250,200,182],
[18,119680,265,100,234,260,208,208,260,208,188],
[19,145620,270,100,243,270,216,216,270,216,194],
[20,176000,275,100,252,280,224,224,280,224,200],
[21,209820,280,100,256,284,227,227,284,227,202],
[22,247160,285,100,259,288,230,230,288,230,205],
[23,288100,290,100,263,292,234,234,292,234,208],
[24,332720,295,100,266,296,237,237,296,237,211],
[25,381100,300,100,270,300,240,240,300,240,214],
[26,433320,305,100,274,304,243,243,304,243,217],
[27,489480,310,100,277,308,246,246,308,246,219],
[28,549680,315,100,281,312,250,250,312,250,222],
[29,614120,320,100,284,316,253,253,316,253,225],
[30,685000,325,100,288,320,256,256,320,256,228],
[31,757320,330,100,292,324,259,259,324,259,231],
[32,831130,335,100,295,328,262,262,328,262,234],
[33,906480,340,100,299,332,266,266,332,266,237],
[34,983420,345,100,302,336,269,269,336,269,239],
[35,1062000,350,100,306,340,272,272,340,272,242],
[36,1142320,355,100,310,344,275,275,344,275,245],
[37,1224480,360,100,313,348,278,278,348,278,248],
[38,1308580,365,100,317,352,282,282,352,282,251],
[39,1394720,370,100,320,356,285,285,356,285,254],
[40,1486140,375,100,324,360,288,288,360,288,257],
[41,1610000,380,100,328,364,291,291,364,291,259],
[42,1770000,385,100,331,368,294,294,368,294,262],
[43,1980000,390,100,335,372,298,298,372,298,265],
[44,2250000,395,100,338,376,301,301,376,301,268],
[45,2670000,400,100,342,380,304,304,380,304,271],
[46,3250000,405,100,346,384,307,307,384,307,274],
[47,4000000,410,100,349,388,310,310,388,310,276],
[48,4930000,415,100,353,392,314,314,392,314,279],
[49,6050000,420,100,356,396,317,317,396,317,282],
[50,7200500,425,100,360,400,320,320,400,320,285],
[51,8382000,430,100,364,404,323,323,404,323,288],
[52,9595000,435,100,368,408,326,326,408,326,291],
[53,10840000,440,100,372,412,329,329,412,329,294],
[54,12117500,445,100,376,416,332,332,416,332,297],
[55,13428000,450,100,380,420,335,335,420,335,300],
[56,14772000,455,100,384,424,338,338,424,338,303],
[57,16150000,460,100,388,428,341,341,428,341,306],
[58,17562500,465,100,392,432,344,344,432,344,309],
[59,19010000,470,100,396,436,347,347,436,347,312],
[60,20457500,475,100,400,440,350,350,440,350,315],
[61,22012000,480,100,404,444,353,353,444,353,318],
[62,23567500,485,100,408,448,356,356,448,356,321],
[63,25160000,490,100,412,452,359,359,452,359,324],
[64,26790000,495,100,416,456,362,362,456,362,327],
[65,28458000,500,100,420,460,365,365,460,365,330],
[66,30164500,505,100,424,464,368,368,464,368,333],
[67,31910000,510,100,428,468,371,371,468,371,336],
[68,33695000,515,100,432,472,374,374,472,374,339],
[69,35520000,520,100,436,476,377,377,476,377,342],
[70,37385500,525,100,440,480,380,380,480,380,345],
[71,39292000,530,100,444,484,383,383,484,383,348],
[72,41240000,535,100,448,488,386,386,488,386,351],
[73,43230000,540,100,452,492,389,389,492,389,354],
[74,45262500,545,100,456,496,392,392,496,392,357],
[75,47338000,550,100,460,500,395,395,500,395,360],
[76,49457000,555,100,464,504,398,398,504,398,363],
[77,51620000,560,100,468,508,401,401,508,401,366],
[78,53827500,565,100,472,512,404,404,512,404,369],
[79,56080000,570,100,476,516,407,407,516,407,372],
[80,58378000,575,100,480,520,410,410,520,410,375],
[81,60722000,580,100,484,524,413,413,524,413,378],
[82,63112500,585,100,488,528,416,416,528,416,381],
[83,65550000,590,100,492,532,419,419,532,419,384],
[84,68035000,595,100,496,536,422,422,536,422,387],
[85,70568000,600,100,500,540,425,425,540,425,390],
[86,73149500,605,100,504,544,428,428,544,428,393],
[87,75780000,610,100,508,548,431,431,548,431,396],
[88,78460000,615,100,512,552,434,434,552,434,399],
[89,81190000,620,100,516,556,437,437,556,437,402],
[90,83970500,625,100,520,560,440,440,560,440,405],
[91,86802000,630,100,524,564,443,443,564,443,408],
[92,89685000,635,100,528,568,446,446,568,446,411],
[93,92620000,640,100,532,572,449,449,572,449,414],
[94,95607500,645,100,536,576,452,452,576,452,417],
[95,98648000,650,100,540,580,455,455,580,455,420],
[96,101742000,655,100,544,584,458,458,584,458,423],
[97,104890000,660,100,548,588,461,461,588,461,426],
[98,108092500,665,100,552,592,464,464,592,464,429],
[99,111350000,670,100,556,596,467,467,596,467,432],
[100,114663000,675,100,560,600,470,470,600,470,435]
],
[ //GU
[0,0,0,0,0,0,0,0,0,0,0],
[1,120,185,100,81,90,72,72,90,72,91],
[2,480,190,100,90,100,80,80,100,80,97],
[3,1130,195,100,99,110,88,88,110,88,103],
[4,2120,200,100,108,120,96,96,120,96,108],
[5,3500,205,100,117,130,104,104,130,104,114],
[6,5320,210,100,126,140,112,112,140,112,120],
[7,7630,215,100,135,150,120,120,150,120,125],
[8,10480,220,100,144,160,128,128,160,128,131],
[9,13920,225,100,153,170,136,136,170,136,137],
[10,18000,230,100,162,180,144,144,180,144,143],
[11,23220,235,100,171,190,152,152,190,152,148],
[12,29980,240,100,180,200,160,160,200,160,154],
[13,38580,245,100,189,210,168,168,210,168,160],
[14,49320,250,100,198,220,176,176,220,176,165],
[15,62500,255,100,207,230,184,184,230,184,171],
[16,78420,260,100,216,240,192,192,240,192,177],
[17,97380,265,100,225,250,200,200,250,200,182],
[18,119680,270,100,234,260,208,208,260,208,188],
[19,145620,275,100,243,270,216,216,270,216,194],
[20,176000,280,100,252,280,224,224,280,224,200],
[21,209820,285,100,256,284,227,227,284,227,202],
[22,247160,290,100,259,288,230,230,288,230,205],
[23,288100,295,100,263,292,234,234,292,234,208],
[24,332720,300,100,266,296,237,237,296,237,211],
[25,381100,305,100,270,300,240,240,300,240,214],
[26,433320,310,100,274,304,243,243,304,243,217],
[27,489480,315,100,277,308,246,246,308,246,219],
[28,549680,320,100,281,312,250,250,312,250,222],
[29,614120,325,100,284,316,253,253,316,253,225],
[30,685000,330,100,288,320,256,256,320,256,228],
[31,757320,335,100,292,324,259,259,324,259,231],
[32,831130,340,100,295,328,262,262,328,262,234],
[33,906480,345,100,299,332,266,266,332,266,237],
[34,983420,350,100,302,336,269,269,336,269,239],
[35,1062000,355,100,306,340,272,272,340,272,242],
[36,1142320,360,100,310,344,275,275,344,275,245],
[37,1224480,365,100,313,348,278,278,348,278,248],
[38,1308580,370,100,317,352,282,282,352,282,251],
[39,1394720,375,100,320,356,285,285,356,285,254],
[40,1486140,380,100,324,360,288,288,360,288,257],
[41,1610000,385,100,328,364,291,291,364,291,259],
[42,1770000,390,100,331,368,294,294,368,294,262],
[43,1980000,395,100,335,372,298,298,372,298,265],
[44,2250000,400,100,338,376,301,301,376,301,268],
[45,2670000,405,100,342,380,304,304,380,304,271],
[46,3250000,410,100,346,384,307,307,384,307,274],
[47,4000000,415,100,349,388,310,310,388,310,276],
[48,4930000,420,100,353,392,314,314,392,314,279],
[49,6050000,425,100,356,396,317,317,396,317,282],
[50,7200500,430,100,360,400,320,320,400,320,285],
[51,8382000,435,100,364,404,323,323,404,323,288],
[52,9595000,440,100,368,408,326,326,408,326,291],
[53,10840000,445,100,372,412,329,329,412,329,294],
[54,12117500,450,100,376,416,332,332,416,332,297],
[55,13428000,455,100,380,420,335,335,420,335,300],
[56,14772000,460,100,384,424,338,338,424,338,303],
[57,16150000,465,100,388,428,341,341,428,341,306],
[58,17562500,470,100,392,432,344,344,432,344,309],
[59,19010000,475,100,396,436,347,347,436,347,312],
[60,20457500,480,100,400,440,350,350,440,350,315],
[61,22012000,485,100,404,444,353,353,444,353,318],
[62,23567500,490,100,408,448,356,356,448,356,321],
[63,25160000,495,100,412,452,359,359,452,359,324],
[64,26790000,500,100,416,456,362,362,456,362,327],
[65,28458000,505,100,420,460,365,365,460,365,330],
[66,30164500,510,100,424,464,368,368,464,368,333],
[67,31910000,515,100,428,468,371,371,468,371,336],
[68,33695000,520,100,432,472,374,374,472,374,339],
[69,35520000,525,100,436,476,377,377,476,377,342],
[70,37385500,530,100,440,480,380,380,480,380,345],
[71,39292000,535,100,444,484,383,383,484,383,348],
[72,41240000,540,100,448,488,386,386,488,386,351],
[73,43230000,545,100,452,492,389,389,492,389,354],
[74,45262500,550,100,456,496,392,392,496,392,357],
[75,47338000,555,100,460,500,395,395,500,395,360],
[76,49457000,560,100,464,504,398,398,504,398,363],
[77,51620000,565,100,468,508,401,401,508,401,366],
[78,53827500,570,100,472,512,404,404,512,404,369],
[79,56080000,575,100,476,516,407,407,516,407,372],
[80,58378000,580,100,480,520,410,410,520,410,375],
[81,60722000,585,100,484,524,413,413,524,413,378],
[82,63112500,590,100,488,528,416,416,528,416,381],
[83,65550000,595,100,492,532,419,419,532,419,384],
[84,68035000,600,100,496,536,422,422,536,422,387],
[85,70568000,605,100,500,540,425,425,540,425,390],
[86,73149500,610,100,504,544,428,428,544,428,393],
[87,75780000,615,100,508,548,431,431,548,431,396],
[88,78460000,620,100,512,552,434,434,552,434,399],
[89,81190000,625,100,516,556,437,437,556,437,402],
[90,83970500,630,100,520,560,440,440,560,440,405],
[91,86802000,635,100,524,564,443,443,564,443,408],
[92,89685000,640,100,528,568,446,446,568,446,411],
[93,92620000,645,100,532,572,449,449,572,449,414],
[94,95607500,650,100,536,576,452,452,576,452,417],
[95,98648000,655,100,540,580,455,455,580,455,420],
[96,101742000,660,100,544,584,458,458,584,458,423],
[97,104890000,665,100,548,588,461,461,588,461,426],
[98,108092500,670,100,552,592,464,464,592,464,429],
[99,111350000,675,100,556,596,467,467,596,467,432],
[100,114663000,680,100,560,600,470,470,600,470,435]
],
[ //FO
[0,0,0,0,0,0,0,0,0,0,0],
[1,120,160,100,72,81,90,72,72,90,91],
[2,480,164,100,80,90,100,80,80,100,97],
[3,1130,168,100,88,99,110,88,88,110,103],
[4,2120,172,100,96,108,120,96,96,120,108],
[5,3500,176,100,104,117,130,104,104,130,114],
[6,5320,180,100,112,126,140,112,112,140,120],
[7,7630,184,100,120,135,150,120,120,150,125],
[8,10480,188,100,128,144,160,128,128,160,131],
[9,13920,192,100,136,153,170,136,136,170,137],
[10,18000,196,100,144,162,180,144,144,180,143],
[11,23220,200,100,152,171,190,152,152,190,148],
[12,29980,204,100,160,180,200,160,160,200,154],
[13,38580,208,100,168,189,210,168,168,210,160],
[14,49320,212,100,176,198,220,176,176,220,165],
[15,62500,216,100,184,207,230,184,184,230,171],
[16,78420,220,100,192,216,240,192,192,240,177],
[17,97380,224,100,200,225,250,200,200,250,182],
[18,119680,228,100,208,234,260,208,208,260,188],
[19,145620,232,100,216,243,270,216,216,270,194],
[20,176000,236,100,224,252,280,224,224,280,200],
[21,209820,240,100,227,256,284,227,227,284,202],
[22,247160,244,100,230,259,288,230,230,288,205],
[23,288100,248,100,234,263,292,234,234,292,208],
[24,332720,252,100,237,266,296,237,237,296,211],
[25,381100,256,100,240,270,300,240,240,300,214],
[26,433320,260,100,243,274,304,243,243,304,217],
[27,489480,264,100,246,277,308,246,246,308,219],
[28,549680,268,100,250,281,312,250,250,312,222],
[29,614120,272,100,253,284,316,253,253,316,225],
[30,685000,276,100,256,288,320,256,256,320,228],
[31,757320,280,100,259,292,324,259,259,324,231],
[32,831130,284,100,262,295,328,262,262,328,234],
[33,906480,288,100,266,299,332,266,266,332,237],
[34,983420,292,100,269,302,336,269,269,336,239],
[35,1062000,296,100,272,306,340,272,272,340,242],
[36,1142320,300,100,275,310,344,275,275,344,245],
[37,1224480,304,100,278,313,348,278,278,348,248],
[38,1308580,308,100,282,317,352,282,282,352,251],
[39,1394720,312,100,285,320,356,285,285,356,254],
[40,1486140,316,100,288,324,360,288,288,360,257],
[41,1610000,320,100,291,328,364,291,291,364,259],
[42,1770000,324,100,294,331,368,294,294,368,262],
[43,1980000,328,100,298,335,372,298,298,372,265],
[44,2250000,332,100,301,338,376,301,301,376,268],
[45,2670000,336,100,304,342,380,304,304,380,271],
[46,3250000,340,100,307,346,384,307,307,384,274],
[47,4000000,344,100,310,349,388,310,310,388,276],
[48,4930000,348,100,314,353,392,314,314,392,279],
[49,6050000,352,100,317,356,396,317,317,396,282],
[50,7200500,356,100,320,360,400,320,320,400,285],
[51,8382000,360,100,323,364,404,323,323,404,288],
[52,9595000,364,100,326,368,408,326,326,408,291],
[53,10840000,368,100,329,372,412,329,329,412,294],
[54,12117500,372,100,332,376,416,332,332,416,297],
[55,13428000,376,100,335,380,420,335,335,420,300],
[56,14772000,380,100,338,384,424,338,338,424,303],
[57,16150000,384,100,341,388,428,341,341,428,306],
[58,17562500,388,100,344,392,432,344,344,432,309],
[59,19010000,392,100,347,396,436,347,347,436,312],
[60,20457500,396,100,350,400,440,350,350,440,315],
[61,22012000,400,100,353,404,444,353,353,444,318],
[62,23567500,404,100,356,408,448,356,356,448,321],
[63,25160000,408,100,359,412,452,359,359,452,324],
[64,26790000,412,100,362,416,456,362,362,456,327],
[65,28458000,416,100,365,420,460,365,365,460,330],
[66,30164500,420,100,368,424,464,368,368,464,333],
[67,31910000,424,100,371,428,468,371,371,468,336],
[68,33695000,428,100,374,432,472,374,374,472,339],
[69,35520000,432,100,377,436,476,377,377,476,342],
[70,37385500,436,100,380,440,480,380,380,480,345],
[71,39292000,440,100,383,444,484,383,383,484,348],
[72,41240000,444,100,386,448,488,386,386,488,351],
[73,43230000,448,100,389,452,492,389,389,492,354],
[74,45262500,452,100,392,456,496,392,392,496,357],
[75,47338000,456,100,395,460,500,395,395,500,360],
[76,49457000,460,100,398,464,504,398,398,504,363],
[77,51620000,464,100,401,468,508,401,401,508,366],
[78,53827500,468,100,404,472,512,404,404,512,369],
[79,56080000,472,100,407,476,516,407,407,516,372],
[80,58378000,476,100,410,480,520,410,410,520,375],
[81,60722000,480,100,413,484,524,413,413,524,378],
[82,63112500,484,100,416,488,528,416,416,528,381],
[83,65550000,488,100,419,492,532,419,419,532,384],
[84,68035000,492,100,422,496,536,422,422,536,387],
[85,70568000,496,100,425,500,540,425,425,540,390],
[86,73149500,500,100,428,504,544,428,428,544,393],
[87,75780000,504,100,431,508,548,431,431,548,396],
[88,78460000,508,100,434,512,552,434,434,552,399],
[89,81190000,512,100,437,516,556,437,437,556,402],
[90,83970500,516,100,440,520,560,440,440,560,405],
[91,86802000,520,100,443,524,564,443,443,564,408],
[92,89685000,524,100,446,528,568,446,446,568,411],
[93,92620000,528,100,449,532,572,449,449,572,414],
[94,95607500,532,100,452,536,576,452,452,576,417],
[95,98648000,536,100,455,540,580,455,455,580,420],
[96,101742000,540,100,458,544,584,458,458,584,423],
[97,104890000,544,100,461,548,588,461,461,588,426],
[98,108092500,548,100,464,552,592,464,464,592,429],
[99,111350000,552,100,467,556,596,467,467,596,432],
[100,114663000,556,100,470,560,600,470,470,600,435]
],
[ //TE
[0,0,0,0,0,0,0,0,0,0,0],
[1,120,160,100,81,72,90,90,72,72,91],
[2,480,164,100,90,80,100,100,80,80,97],
[3,1130,168,100,99,88,110,110,88,88,103],
[4,2120,172,100,108,96,120,120,96,96,108],
[5,3500,176,100,117,104,130,130,104,104,114],
[6,5320,180,100,126,112,140,140,112,112,120],
[7,7630,184,100,135,120,150,150,120,120,125],
[8,10480,188,100,144,128,160,160,128,128,131],
[9,13920,192,100,153,136,170,170,136,136,137],
[10,18000,196,100,162,144,180,180,144,144,143],
[11,23220,200,100,171,152,190,190,152,152,148],
[12,29980,204,100,180,160,200,200,160,160,154],
[13,38580,208,100,189,168,210,210,168,168,160],
[14,49320,212,100,198,176,220,220,176,176,165],
[15,62500,216,100,207,184,230,230,184,184,171],
[16,78420,220,100,216,192,240,240,192,192,177],
[17,97380,224,100,225,200,250,250,200,200,182],
[18,119680,228,100,234,208,260,260,208,208,188],
[19,145620,232,100,243,216,270,270,216,216,194],
[20,176000,236,100,252,224,280,280,224,224,200],
[21,209820,240,100,256,227,284,284,227,227,202],
[22,247160,244,100,259,230,288,288,230,230,205],
[23,288100,248,100,263,234,292,292,234,234,208],
[24,332720,252,100,266,237,296,296,237,237,211],
[25,381100,256,100,270,240,300,300,240,240,214],
[26,433320,260,100,274,243,304,304,243,243,217],
[27,489480,264,100,277,246,308,308,246,246,219],
[28,549680,268,100,281,250,312,312,250,250,222],
[29,614120,272,100,284,253,316,316,253,253,225],
[30,685000,276,100,288,256,320,320,256,256,228],
[31,757320,280,100,292,259,324,324,259,259,231],
[32,831130,284,100,295,262,328,328,262,262,234],
[33,906480,288,100,299,266,332,332,266,266,237],
[34,983420,292,100,302,269,336,336,269,269,239],
[35,1062000,296,100,306,272,340,340,272,272,242],
[36,1142320,300,100,310,275,344,344,275,275,245],
[37,1224480,304,100,313,278,348,348,278,278,248],
[38,1308580,308,100,317,282,352,352,282,282,251],
[39,1394720,312,100,320,285,356,356,285,285,254],
[40,1486140,316,100,324,288,360,360,288,288,257],
[41,1610000,320,100,328,291,364,364,291,291,259],
[42,1770000,324,100,331,294,368,368,294,294,262],
[43,1980000,328,100,335,298,372,372,298,298,265],
[44,2250000,332,100,338,301,376,376,301,301,268],
[45,2670000,336,100,342,304,380,380,304,304,271],
[46,3250000,340,100,346,307,384,384,307,307,274],
[47,4000000,344,100,349,310,388,388,310,310,276],
[48,4930000,348,100,353,314,392,392,314,314,279],
[49,6050000,352,100,356,317,396,396,317,317,282],
[50,7200500,356,100,360,320,400,400,320,320,285],
[51,8382000,360,100,364,323,404,404,323,323,288],
[52,9595000,364,100,368,326,408,408,326,326,291],
[53,10840000,368,100,372,329,412,412,329,329,294],
[54,12117500,372,100,376,332,416,416,332,332,297],
[55,13428000,376,100,380,335,420,420,335,335,300],
[56,14772000,380,100,384,338,424,424,338,338,303],
[57,16150000,384,100,388,341,428,428,341,341,306],
[58,17562500,388,100,392,344,432,432,344,344,309],
[59,19010000,392,100,396,347,436,436,347,347,312],
[60,20457500,396,100,400,350,440,440,350,350,315],
[61,22012000,400,100,404,353,444,444,353,353,318],
[62,23567500,404,100,408,356,448,448,356,356,321],
[63,25160000,408,100,412,359,452,452,359,359,324],
[64,26790000,412,100,416,362,456,456,362,362,327],
[65,28458000,416,100,420,365,460,460,365,365,330],
[66,30164500,420,100,424,368,464,464,368,368,333],
[67,31910000,424,100,428,371,468,468,371,371,336],
[68,33695000,428,100,432,374,472,472,374,374,339],
[69,35520000,432,100,436,377,476,476,377,377,342],
[70,37385500,436,100,440,380,480,480,380,380,345],
[71,39292000,440,100,444,383,484,484,383,383,348],
[72,41240000,444,100,448,386,488,488,386,386,351],
[73,43230000,448,100,452,389,492,492,389,389,354],
[74,45262500,452,100,456,392,496,496,392,392,357],
[75,47338000,456,100,460,395,500,500,395,395,360],
[76,49457000,460,100,464,398,504,504,398,398,363],
[77,51620000,464,100,468,401,508,508,401,401,366],
[78,53827500,468,100,472,404,512,512,404,404,369],
[79,56080000,472,100,476,407,516,516,407,407,372],
[80,58378000,476,100,480,410,520,520,410,410,375],
[81,60722000,480,100,484,413,524,524,413,413,378],
[82,63112500,484,100,488,416,528,528,416,416,381],
[83,65550000,488,100,492,419,532,532,419,419,384],
[84,68035000,492,100,496,422,536,536,422,422,387],
[85,70568000,496,100,500,425,540,540,425,425,390],
[86,73149500,500,100,504,428,544,544,428,428,393],
[87,75780000,504,100,508,431,548,548,431,431,396],
[88,78460000,508,100,512,434,552,552,434,434,399],
[89,81190000,512,100,516,437,556,556,437,437,402],
[90,83970500,516,100,520,440,560,560,440,440,405],
[91,86802000,520,100,524,443,564,564,443,443,408],
[92,89685000,524,100,528,446,568,568,446,446,411],
[93,92620000,528,100,532,449,572,572,449,449,414],
[94,95607500,532,100,536,452,576,576,452,452,417],
[95,98648000,536,100,540,455,580,580,455,455,420],
[96,101742000,540,100,544,458,584,584,458,458,423],
[97,104890000,544,100,548,461,588,588,461,461,426],
[98,108092500,548,100,552,464,592,592,464,464,429],
[99,111350000,552,100,556,467,596,596,467,467,432],
[100,114663000,556,100,560,470,600,600,470,470,435]
],
[ //BR
[0,0,0,0,0,0,0,0,0,0,0],
[1,120,190,100,85,85,72,78,78,78,96],
[2,480,195,100,95,95,80,88,88,88,102],
[3,1130,200,100,105,105,88,98,98,98,108],
[4,2120,205,100,115,115,96,108,108,108,113],
[5,3500,210,100,125,125,104,118,118,118,119],
[6,5320,215,100,135,135,112,128,128,128,125],
[7,7630,220,100,145,145,120,138,138,138,130],
[8,10480,225,100,155,155,128,148,148,148,136],
[9,13920,230,100,165,165,136,158,158,158,142],
[10,18000,235,100,175,175,144,168,168,168,148],
[11,23220,240,100,185,185,152,178,178,178,153],
[12,29980,245,100,195,195,160,188,188,188,159],
[13,38580,250,100,205,205,168,198,198,198,165],
[14,49320,255,100,215,215,176,208,208,208,170],
[15,62500,260,100,225,225,184,218,218,218,176],
[16,78420,265,100,235,235,192,228,228,228,182],
[17,97380,270,100,245,245,200,238,238,238,187],
[18,119680,275,100,255,255,208,248,248,248,193],
[19,145620,280,100,265,265,216,258,258,258,199],
[20,176000,285,100,275,275,224,268,268,268,205],
[21,209820,290,100,279,279,227,271,271,271,207],
[22,247160,295,100,283,283,230,274,274,274,210],
[23,288100,300,100,287,287,234,277,277,277,213],
[24,332720,305,100,291,291,237,280,280,280,216],
[25,381100,310,100,295,295,240,283,283,283,219],
[26,433320,315,100,299,299,243,286,286,286,222],
[27,489480,320,100,303,303,246,289,289,289,224],
[28,549680,325,100,307,307,250,292,292,292,227],
[29,614120,330,100,311,311,253,295,295,295,230],
[30,685000,335,100,315,315,256,298,298,298,233],
[31,757320,340,100,318,318,259,301,301,301,236],
[32,831130,345,100,321,321,262,304,304,304,239],
[33,906480,350,100,324,324,265,307,307,307,242],
[34,983420,355,100,327,327,268,310,310,310,244],
[35,1062000,360,100,330,330,271,313,313,313,247],
[36,1142320,365,100,333,333,274,316,316,316,250],
[37,1224480,370,100,336,336,277,319,319,319,253],
[38,1308580,375,100,339,339,280,322,322,322,256],
[39,1394720,380,100,342,342,283,325,325,325,259],
[40,1486140,385,100,345,345,286,328,328,328,262],
[41,1610000,390,100,348,348,289,331,331,331,264],
[42,1770000,395,100,351,351,292,334,334,334,267],
[43,1980000,400,100,354,354,295,337,337,337,270],
[44,2250000,405,100,357,357,298,340,340,340,273],
[45,2670000,410,100,360,360,301,343,343,343,276],
[46,3250000,415,100,363,363,304,346,346,346,279],
[47,4000000,420,100,366,366,307,349,349,349,281],
[48,4930000,425,100,369,369,310,352,352,352,284],
[49,6050000,430,100,372,372,313,355,355,355,287],
[50,7200500,435,100,375,375,316,358,358,358,290],
[51,8382000,440,100,378,378,319,361,361,361,293],
[52,9595000,445,100,381,381,322,364,364,364,296],
[53,10840000,450,100,384,384,325,367,367,367,299],
[54,12117500,455,100,387,387,328,370,370,370,302],
[55,13428000,460,100,390,390,331,373,373,373,305],
[56,14772000,465,100,393,393,334,376,376,376,308],
[57,16150000,470,100,396,396,337,379,379,379,311],
[58,17562500,475,100,399,399,340,382,382,382,314],
[59,19010000,480,100,402,402,343,385,385,385,317],
[60,20457500,485,100,405,405,346,388,388,388,320],
[61,22012000,490,100,409,409,350,391,391,391,323],
[62,23567500,495,100,413,413,354,394,394,394,326],
[63,25160000,500,100,417,417,358,397,397,397,329],
[64,26790000,505,100,421,421,362,400,400,400,332],
[65,28458000,510,100,425,425,366,403,403,403,335],
[66,30164500,515,100,429,429,370,406,406,406,338],
[67,31910000,520,100,433,433,374,409,409,409,341],
[68,33695000,525,100,437,437,378,412,412,412,344],
[69,35520000,530,100,441,441,382,415,415,415,347],
[70,37385500,535,100,445,445,386,418,418,418,350],
[71,39292000,540,100,449,449,390,421,421,421,353],
[72,41240000,545,100,453,453,394,424,424,424,356],
[73,43230000,550,100,457,457,398,427,427,427,359],
[74,45262500,555,100,461,461,402,430,430,430,362],
[75,47338000,560,100,465,465,406,433,433,433,365],
[76,49457000,565,100,469,469,410,436,436,436,368],
[77,51620000,570,100,473,473,414,439,439,439,371],
[78,53827500,575,100,477,477,418,442,442,442,374],
[79,56080000,580,100,481,481,422,445,445,445,377],
[80,58378000,585,100,485,485,426,448,448,448,380],
[81,60722000,590,100,489,489,430,451,451,451,383],
[82,63112500,595,100,493,493,434,454,454,454,386],
[83,65550000,600,100,497,497,438,457,457,457,389],
[84,68035000,605,100,501,501,442,460,460,460,392],
[85,70568000,610,100,505,505,446,463,463,463,395],
[86,73149500,615,100,509,509,450,466,466,466,398],
[87,75780000,620,100,513,513,454,469,469,469,401],
[88,78460000,625,100,517,517,458,472,472,472,404],
[89,81190000,630,100,521,521,462,475,475,475,407],
[90,83970500,635,100,525,525,466,478,478,478,410],
[91,86802000,640,100,529,529,470,481,481,481,413],
[92,89685000,645,100,533,533,474,484,484,484,416],
[93,92620000,650,100,537,537,478,487,487,487,419],
[94,95607500,655,100,541,541,482,490,490,490,422],
[95,98648000,660,100,545,545,486,493,493,493,425],
[96,101742000,665,100,549,549,490,496,496,496,428],
[97,104890000,670,100,553,553,494,499,499,499,431],
[98,108092500,675,100,557,557,498,502,502,502,434],
[99,111350000,680,100,561,561,502,505,505,505,437],
[100,114663000,685,100,565,565,506,508,508,508,440]
],
[ //BO
[0,0,0,0,0,0,0,0,0,0,0],
[1,120,190,100,85,72,85,78,78,78,96],
[2,480,195,100,95,80,95,88,88,88,102],
[3,1130,200,100,105,88,105,98,98,98,108],
[4,2120,205,100,115,96,115,108,108,108,113],
[5,3500,210,100,125,104,125,118,118,118,119],
[6,5320,215,100,135,112,135,128,128,128,125],
[7,7630,220,100,145,120,145,138,138,138,130],
[8,10480,225,100,155,128,155,148,148,148,136],
[9,13920,230,100,165,136,165,158,158,158,142],
[10,18000,235,100,175,144,175,168,168,168,148],
[11,23220,240,100,185,152,185,178,178,178,153],
[12,29980,245,100,195,160,195,188,188,188,159],
[13,38580,250,100,205,168,205,198,198,198,165],
[14,49320,255,100,215,176,215,208,208,208,170],
[15,62500,260,100,225,184,225,218,218,218,176],
[16,78420,265,100,235,192,235,228,228,228,182],
[17,97380,270,100,245,200,245,238,238,238,187],
[18,119680,275,100,255,208,255,248,248,248,193],
[19,145620,280,100,265,216,265,258,258,258,199],
[20,176000,285,100,275,224,275,268,268,268,205],
[21,209820,290,100,279,227,279,271,271,271,207],
[22,247160,295,100,283,230,283,274,274,274,210],
[23,288100,300,100,287,234,287,277,277,277,213],
[24,332720,305,100,291,237,291,280,280,280,216],
[25,381100,310,100,295,240,295,283,283,283,219],
[26,433320,315,100,299,243,299,286,286,286,222],
[27,489480,320,100,303,246,303,289,289,289,224],
[28,549680,325,100,307,250,307,292,292,292,227],
[29,614120,330,100,311,253,311,295,295,295,230],
[30,685000,335,100,315,256,315,298,298,298,233],
[31,757320,340,100,318,259,318,301,301,301,236],
[32,831130,345,100,321,262,321,304,304,304,239],
[33,906480,350,100,324,265,324,307,307,307,242],
[34,983420,355,100,327,268,327,310,310,310,244],
[35,1062000,360,100,330,271,330,313,313,313,247],
[36,1142320,365,100,333,274,333,316,316,316,250],
[37,1224480,370,100,336,277,336,319,319,319,253],
[38,1308580,375,100,339,280,339,322,322,322,256],
[39,1394720,380,100,342,283,342,325,325,325,259],
[40,1486140,385,100,345,286,345,328,328,328,262],
[41,1610000,390,100,348,289,348,331,331,331,264],
[42,1770000,395,100,351,292,351,334,334,334,267],
[43,1980000,400,100,354,295,354,337,337,337,270],
[44,2250000,405,100,357,298,357,340,340,340,273],
[45,2580500,410,100,360,301,360,343,343,343,276],
[46,2972000,415,100,363,304,363,346,346,346,279],
[47,3425000,420,100,366,307,366,349,349,349,281],
[48,3940000,425,100,369,310,369,352,352,352,284],
[49,4517500,430,100,372,313,372,355,355,355,287],
[50,5158000,435,100,375,316,375,358,358,358,290],
[51,5863500,440,100,378,319,378,361,361,361,293],
[52,6636000,445,100,381,322,381,364,364,364,296],
[53,7477500,450,100,384,325,384,367,367,367,299],
[54,8390000,455,100,387,328,387,370,370,370,302],
[55,9375500,460,100,390,331,390,373,373,373,305],
[56,10436000,465,100,393,334,393,376,376,376,308],
[57,11573500,470,100,396,337,396,379,379,379,311],
[58,12790000,475,100,399,340,399,382,382,382,314],
[59,14087500,480,100,402,343,402,385,385,385,317],
[60,15505000,485,100,405,346,405,388,388,388,320],
[61,16958500,490,100,409,350,409,391,391,391,323],
[62,18448500,495,100,413,354,413,394,394,394,326],
[63,19975500,500,100,417,358,417,397,397,397,329],
[64,21540000,505,100,421,362,421,400,400,400,332],
[65,23142500,510,100,425,366,425,403,403,403,335],
[66,24783500,515,100,429,370,429,406,406,406,338],
[67,26463500,520,100,433,374,433,409,409,409,341],
[68,28183000,525,100,437,378,437,412,412,412,344],
[69,29942500,530,100,441,382,441,415,415,415,347],
[70,31742500,535,100,445,386,445,418,418,418,350],
[71,33583500,540,100,449,390,449,421,421,421,353],
[72,35466000,545,100,453,394,453,424,424,424,356],
[73,37390500,550,100,457,398,457,427,427,427,359],
[74,39357500,555,100,461,402,461,430,430,430,362],
[75,41367500,560,100,465,406,465,433,433,433,365],
[76,43421000,565,100,469,410,469,436,436,436,368],
[77,45518500,570,100,473,414,473,439,439,439,371],
[78,47660500,575,100,477,418,477,442,442,442,374],
[79,49847500,580,100,481,422,481,445,445,445,377],
[80,52080000,585,100,485,426,485,448,448,448,380],
[81,54358500,590,100,489,430,489,451,451,451,383],
[82,56683500,595,100,493,434,493,454,454,454,386],
[83,59055500,600,100,497,438,497,457,457,457,389],
[84,61475000,605,100,501,442,501,460,460,460,392],
[85,63942500,610,100,505,446,505,463,463,463,395],
[86,66458500,615,100,509,450,509,466,466,466,398],
[87,69023500,620,100,513,454,513,469,469,469,401],
[88,71638000,625,100,517,458,517,472,472,472,404],
[89,74302500,630,100,521,462,521,475,475,475,407],
[90,77017500,635,100,525,466,525,478,478,478,410],
[91,79783500,640,100,529,470,529,481,481,481,413],
[92,82601000,645,100,533,474,533,484,484,484,416],
[93,85470500,650,100,537,478,537,487,487,487,419],
[94,88392500,655,100,541,482,541,490,490,490,422],
[95,91367500,660,100,545,486,545,493,493,493,425],
[96,94396000,665,100,549,490,549,496,496,496,428],
[97,97478500,670,100,553,494,553,499,499,499,431],
[98,100615500,675,100,557,498,557,502,502,502,434],
[99,103807500,680,100,561,502,561,505,505,505,437],
[100,107055000,685,100,565,506,565,508,508,508,440]
],
[ //SU
[0,0,0,0,0,0,0,0,0,0,0],
[1,0,0,0,0,0,0,0,0,0,0],
[2,0,0,0,0,0,0,0,0,0,0],
[3,0,0,0,0,0,0,0,0,0,0],
[4,0,0,0,0,0,0,0,0,0,0],
[5,0,0,0,0,0,0,0,0,0,0],
[6,0,0,0,0,0,0,0,0,0,0],
[7,0,0,0,0,0,0,0,0,0,0],
[8,0,0,0,0,0,0,0,0,0,0],
[9,0,0,0,0,0,0,0,0,0,0],
[10,0,0,0,0,0,0,0,0,0,0],
[11,0,0,0,0,0,0,0,0,0,0],
[12,0,0,0,0,0,0,0,0,0,0],
[13,0,0,0,0,0,0,0,0,0,0],
[14,0,0,0,0,0,0,0,0,0,0],
[15,0,0,0,0,0,0,0,0,0,0],
[16,0,0,0,0,0,0,0,0,0,0],
[17,0,0,0,0,0,0,0,0,0,0],
[18,0,0,0,0,0,0,0,0,0,0],
[19,0,0,0,0,0,0,0,0,0,0],
[20,0,0,0,0,0,0,0,0,0,0],
[21,0,0,0,0,0,0,0,0,0,0],
[22,0,0,0,0,0,0,0,0,0,0],
[23,0,0,0,0,0,0,0,0,0,0],
[24,0,0,0,0,0,0,0,0,0,0],
[25,0,0,0,0,0,0,0,0,0,0],
[26,0,0,0,0,0,0,0,0,0,0],
[27,0,0,0,0,0,0,0,0,0,0],
[28,0,0,0,0,0,0,0,0,0,0],
[29,0,0,0,0,0,0,0,0,0,0],
[30,0,0,0,0,0,0,0,0,0,0],
[31,0,0,0,0,0,0,0,0,0,0],
[32,0,0,0,0,0,0,0,0,0,0],
[33,0,0,0,0,0,0,0,0,0,0],
[34,0,0,0,0,0,0,0,0,0,0],
[35,0,0,0,0,0,0,0,0,0,0],
[36,0,0,0,0,0,0,0,0,0,0],
[37,0,0,0,0,0,0,0,0,0,0],
[38,0,0,0,0,0,0,0,0,0,0],
[39,0,0,0,0,0,0,0,0,0,0],
[40,0,0,0,0,0,0,0,0,0,0],
[41,0,0,0,0,0,0,0,0,0,0],
[42,0,0,0,0,0,0,0,0,0,0],
[43,0,0,0,0,0,0,0,0,0,0],
[44,0,0,0,0,0,0,0,0,0,0],
[45,0,0,0,0,0,0,0,0,0,0],
[46,0,0,0,0,0,0,0,0,0,0],
[47,0,0,0,0,0,0,0,0,0,0],
[48,0,0,0,0,0,0,0,0,0,0],
[49,0,0,0,0,0,0,0,0,0,0],
[50,0,0,0,0,0,0,0,0,0,0],
[51,0,0,0,0,0,0,0,0,0,0],
[52,0,0,0,0,0,0,0,0,0,0],
[53,0,0,0,0,0,0,0,0,0,0],
[54,0,0,0,0,0,0,0,0,0,0],
[55,0,0,0,0,0,0,0,0,0,0],
[56,0,0,0,0,0,0,0,0,0,0],
[57,0,0,0,0,0,0,0,0,0,0],
[58,0,0,0,0,0,0,0,0,0,0],
[59,0,0,0,0,0,0,0,0,0,0],
[60,0,0,0,0,0,0,0,0,0,0],
[61,0,0,0,0,0,0,0,0,0,0],
[62,0,0,0,0,0,0,0,0,0,0],
[63,0,0,0,0,0,0,0,0,0,0],
[64,0,0,0,0,0,0,0,0,0,0],
[65,0,0,0,0,0,0,0,0,0,0],
[66,0,0,0,0,0,0,0,0,0,0],
[67,0,0,0,0,0,0,0,0,0,0],
[68,0,0,0,0,0,0,0,0,0,0],
[69,0,0,0,0,0,0,0,0,0,0],
[70,0,0,0,0,0,0,0,0,0,0],
[71,0,0,0,0,0,0,0,0,0,0],
[72,0,0,0,0,0,0,0,0,0,0],
[73,0,0,0,0,0,0,0,0,0,0],
[74,0,0,0,0,0,0,0,0,0,0],
[75,0,0,0,0,0,0,0,0,0,0],
[76,0,0,0,0,0,0,0,0,0,0],
[77,0,0,0,0,0,0,0,0,0,0],
[78,0,0,0,0,0,0,0,0,0,0],
[79,0,0,0,0,0,0,0,0,0,0],
[80,0,0,0,0,0,0,0,0,0,0],
[81,0,0,0,0,0,0,0,0,0,0],
[82,0,0,0,0,0,0,0,0,0,0],
[83,0,0,0,0,0,0,0,0,0,0],
[84,0,0,0,0,0,0,0,0,0,0],
[85,0,0,0,0,0,0,0,0,0,0],
[86,0,0,0,0,0,0,0,0,0,0],
[87,0,0,0,0,0,0,0,0,0,0],
[88,0,0,0,0,0,0,0,0,0,0],
[89,0,0,0,0,0,0,0,0,0,0],
[90,0,0,0,0,0,0,0,0,0,0],
[91,0,0,0,0,0,0,0,0,0,0],
[92,0,0,0,0,0,0,0,0,0,0],
[93,0,0,0,0,0,0,0,0,0,0],
[94,0,0,0,0,0,0,0,0,0,0],
[95,0,0,0,0,0,0,0,0,0,0],
[96,0,0,0,0,0,0,0,0,0,0],
[97,0,0,0,0,0,0,0,0,0,0],
[98,0,0,0,0,0,0,0,0,0,0],
[99,0,0,0,0,0,0,0,0,0,0],
[100,0,0,0,0,0,0,0,0,0,0]
]
];