define OPT_FLOAT_1 = 1
define OPT_FLOAT_0 = 0
define OPT_INT_52 = 52
define OPT_INT_49 = 49
define OPT_INT_50 = 50
define OPT_INT_48 = 48
define OPT_INT_51 = 51

object oa_wave_laser
id 752
rotation 0,000 0,000 0,000 1,000
position 37,906 0,170 -34,406 0,000
item_flag 00 00 00 00 00 00 00 00 00 00 00 00 00 00 00 00 00 00 00 00 05 00 00 00
byte_flag 03 00 00 00 00 00 00 00 00 00 00 00 00 00 00 90 00 C0 33 68
OPT_INT_51 -1
OPT_INT_48 1
OPT_INT_50 2
OPT_INT_49 0
OPT_INT_52 13
OPT_FLOAT_0 0
OPT_FLOAT_1 0

