define OPT_FLOAT_1 = 1
define OPT_FLOAT_0 = 0
define OPT_INT_55 = 55
define OPT_INT_52 = 52
define OPT_INT_53 = 53
define OPT_INT_51 = 51
define OPT_INT_54 = 54

object ob_0210_0154
id 83
rotation 0,000 0,951 0,000 0,309
position 41,531 -0,740 -97,688 0,000
item_flag 00 00 00 00 00 00 00 00 00 00 00 00 00 00 00 00 00 00 00 00 04 00 00 00
byte_flag 02 00 00 00 00 00 00 00 00 00 00 00 00 00 00 80 00 00 68 89
OPT_INT_54 -1
OPT_INT_51 1
OPT_INT_53 0
OPT_INT_52 0
OPT_INT_55 1
OPT_FLOAT_0 1
OPT_FLOAT_1 1

