ver 1

define OPT_INT_59 = 59
define OPT_INT_53 = 53
define OPT_INT_63 = 63
define OPT_FLOAT_57 = 57
define OPT_FLOAT_55 = 55
define OPT_FLOAT_56 = 56
define OPT_INT_48 = 48
define OPT_INT_54 = 54
define OPT_INT_52 = 52
define OPT_INT_45 = 45
define OPT_INT_46 = 46
define OPT_INT_44 = 44
define OPT_INT_47 = 47

npc Npc_239
id 76327
rotation 0,000 1,000 0,000 0,000
position 0,000 0,300 7,469 0,000

npc Npc_254
id 76328
rotation 0,000 0,259 0,000 0,966
position 7,859 -2,408 14,438 0,000

npc Npc_297
id 76329
rotation 0,000 0,766 0,000 0,643
position -4,297 0,060 2,670 0,000

npc Npc_238
id 76330
rotation 0,000 0,906 0,000 0,423
position -4,250 0,040 3,639 0,000

npc Npc_361
id 76331
rotation 0,000 -0,707 0,000 0,707
position 4,328 0,040 3,658 0,000

npc Npc_296
id 76332
rotation 0,000 -0,707 0,000 0,707
position 4,328 0,040 3,658 0,000

npc Npc_324
id 76333
rotation 0,000 0,766 0,000 0,643
position -4,297 0,060 2,670 0,000

npc Npc_326
id 76334
rotation 0,000 0,906 0,000 0,423
position -4,250 0,040 3,639 0,000

npc Npc_236
id 76335
rotation 0,000 0,707 0,000 0,707
position -4,289 0,060 1,670 0,000

npc Npc_266
id 76336
rotation 0,000 0,906 0,000 0,423
position -4,250 0,040 3,639 0,000

object ob_0102_0138
id 76346
rotation 0,000 0,000 0,000 1,000
position 0,000 0,090 -23,797 0,000
item_flag 00 00 00 00 00 00 00 00 00 00 00 00 00 00 00 00 00 00 00 00 04 00 00 00
byte_flag 02 00 00 00 00 00 00 00 00 00 00 00 00 00 08 00 40 68 F8 98
OPT_INT_47 -1
OPT_INT_44 1
OPT_INT_46 1
OPT_INT_45 0
OPT_INT_52 1
OPT_INT_54 1
OPT_INT_48 1
OPT_FLOAT_56 15
OPT_FLOAT_55 5
OPT_FLOAT_57 5

object oa_body_collision
id 76337
rotation 0,000 0,000 0,000 1,000
position -3,600 1,899 -16,688 0,000
item_flag 00 00 00 00 00 00 00 00 00 00 00 00 00 00 00 00 00 00 00 00 04 00 00 00
byte_flag 02 00 00 00 00 00 00 00 00 00 00 00 00 00 08 00 40 70 63 5F
OPT_INT_47 -1
OPT_INT_44 1
OPT_INT_46 1
OPT_INT_45 0
OPT_INT_63 2
OPT_INT_53 2
OPT_INT_48 1

npc Npc_266
id 76336
rotation 0,000 0,906 0,000 0,423
position -4,250 0,040 3,639 0,000

npc Npc_236
id 76335
rotation 0,000 0,707 0,000 0,707
position -4,289 0,060 1,670 0,000

npc Npc_326
id 76334
rotation 0,000 0,906 0,000 0,423
position -4,250 0,040 3,639 0,000

npc Npc_324
id 76333
rotation 0,000 0,766 0,000 0,643
position -4,297 0,060 2,670 0,000

npc Npc_296
id 76332
rotation 0,000 -0,707 0,000 0,707
position 4,328 0,040 3,658 0,000

npc Npc_361
id 76331
rotation 0,000 -0,707 0,000 0,707
position 4,328 0,040 3,658 0,000

npc Npc_238
id 76330
rotation 0,000 0,906 0,000 0,423
position -4,250 0,040 3,639 0,000

npc Npc_297
id 76329
rotation 0,000 0,766 0,000 0,643
position -4,297 0,060 2,670 0,000

npc Npc_254
id 76328
rotation 0,000 0,259 0,000 0,966
position 7,859 -2,408 14,438 0,000

npc Npc_239
id 76327
rotation 0,000 1,000 0,000 0,000
position 0,000 0,300 7,469 0,000

object ob_0107_0000
id 76326
rotation 0,000 0,000 0,000 1,000
position 0,000 0,100 -17,516 0,000
item_flag 00 00 00 00 00 00 00 00 00 00 00 00 00 00 00 00 00 00 00 00 04 00 00 00
byte_flag 02 00 00 00 00 00 00 00 00 00 00 00 00 00 08 00 80 7D EC 4E
OPT_INT_47 -1
OPT_INT_44 1
OPT_INT_46 1
OPT_INT_45 0
OPT_INT_48 1

object ob_0107_0001
id 76325
rotation 0,000 1,000 0,000 0,000
position 0,000 0,460 7,797 0,000
item_flag 00 00 00 00 00 00 00 00 00 00 00 00 00 00 00 00 00 00 00 00 04 00 00 00
byte_flag 02 00 00 00 00 00 00 00 00 00 00 00 00 00 08 00 80 7D EC 4E
OPT_INT_47 -1
OPT_INT_44 1
OPT_INT_46 1
OPT_INT_45 0
OPT_INT_48 1

object ob_0150_0004
id 76324
rotation 0,000 0,000 0,000 1,000
position 6,547 0,040 -16,344 0,000
item_flag 00 00 00 00 00 00 00 00 00 00 00 00 00 00 00 00 00 00 00 00 04 00 00 00
byte_flag 02 00 00 00 00 00 00 00 00 00 00 00 00 00 08 00 80 7D EC 4E
OPT_INT_47 -1
OPT_INT_44 1
OPT_INT_46 1
OPT_INT_59 3
OPT_INT_45 0
OPT_INT_48 1

object ob_0150_0007
id 76323
rotation 0,000 0,000 0,000 1,000
position 4,500 0,040 -16,641 0,000
item_flag 00 00 00 00 00 00 00 00 00 00 00 00 00 00 00 00 00 00 00 00 04 00 00 00
byte_flag 02 00 00 00 00 00 00 00 00 00 00 00 00 00 08 00 80 7D EC 4E
OPT_INT_47 -1
OPT_INT_44 1
OPT_INT_46 1
OPT_INT_45 0
OPT_INT_48 1

object ob_0100_0002
id 76322
rotation 0,000 0,000 0,000 1,000
position -4,500 0,040 -16,344 0,000
item_flag 00 00 00 00 00 00 00 00 00 00 00 00 00 00 00 00 00 00 00 00 04 00 00 00
byte_flag 02 00 00 00 00 00 00 00 00 00 00 00 00 00 08 00 80 7D EC 4E
OPT_INT_47 -1
OPT_INT_44 1
OPT_INT_46 1
OPT_INT_45 0
OPT_INT_48 1

object ob_0150_0001
id 76321
rotation 0,000 0,000 0,000 1,000
position -6,598 0,040 -16,344 0,000
item_flag 00 00 00 00 00 00 00 00 00 00 00 00 00 00 00 00 00 00 00 00 04 00 00 00
byte_flag 02 00 00 00 00 00 00 00 00 00 00 00 00 00 08 00 80 7D EC 4E
OPT_INT_47 -1
OPT_INT_44 1
OPT_INT_46 1
OPT_INT_45 0
OPT_INT_48 1

