ver 5
define OPT_ID_0 = 0
define OPT_ID_9 = 9
define OPT_INT_70 = 70
define OPT_INT_67 = 67
define OPT_INT_64 = 64
define OPT_INT_71 = 71
define OPT_INT_56 = 56
define OPT_INT_63 = 63
define OPT_VERTEX_19 = 19
define OPT_INT_62 = 62
define OPT_VERTEX_18 = 18
define OPT_VERTEX_21 = 21
define OPT_FLOAT_60 = 60
define OPT_INT_72 = 72
define OPT_INT_55 = 55
define OPT_INT_52 = 52
define OPT_INT_53 = 53
define OPT_INT_51 = 51
define OPT_INT_54 = 54

object ob_0102_0001
id 149
rotation 0,000 0,864 0,000 0,503
position -44,750 0,185 14,344 0,000
item_flag 00 00 00 00 00 00 00 00 00 00 00 00 00 00 00 00 00 00 00 00 04 00 00 00
byte_flag 02 00 00 00 00 00 00 00 00 00 00 00 00 00 00 20 00 00 00 00
OPT_INT_54 -1
OPT_INT_51 1
OPT_INT_53 1
OPT_INT_52 0
OPT_INT_55 1
OPT_INT_72 1
OPT_FLOAT_60 5
OPT_VERTEX_21 10,000 10,000 8,000 0,000
OPT_VERTEX_18 0,000 0,000 6,000 0,000

object ob_0102_0001
id 148
rotation 0,000 -0,864 0,000 0,503
position 44,750 0,185 14,344 0,000
item_flag 00 00 00 00 00 00 00 00 00 00 00 00 00 00 00 00 00 00 00 00 04 00 00 00
byte_flag 02 00 00 00 00 00 00 00 00 00 00 00 00 00 00 20 00 00 00 00
OPT_INT_54 -1
OPT_INT_51 1
OPT_INT_53 1
OPT_INT_52 0
OPT_INT_55 1
OPT_INT_72 1
OPT_FLOAT_60 5
OPT_VERTEX_21 10,000 10,000 8,000 0,000
OPT_VERTEX_18 0,000 0,000 6,000 0,000

colision EventCollision
id 147
rotation 0,000 0,000 0,000 1,000
position 0,000 5,000 -50,000 0,000
byte_flag 01 00 00 00 03 00 00 00 01 00 00 00 10 00 00 00 00 00 00 00 00 00 00 00 00 00 20 41 00 00 20 41 00 00 F0 41 00 00 00 00 00 00 00 00 00 00 00 00 00 00 00 00 04 00 00 00 03 00 00 00 00 00 00 00 00 00 00 40 00 00 A0 41

object oa_forced_move
id 146
rotation 0,000 0,000 0,000 1,000
position 0,000 0,000 -42,000 0,000
item_flag 23 00 00 00 00 00 00 00 00 00 00 00 00 00 00 00 00 00 00 00 04 00 00 00
byte_flag 02 00 00 00 00 00 00 00 00 00 00 00 00 00 00 20 00 80 FA D9
OPT_INT_54 -1
OPT_INT_51 1
OPT_INT_53 1
OPT_INT_62 0
OPT_FLOAT_60 15
OPT_VERTEX_18 10,000 40,000 15,000 0,000

object oa_bonus_collision
id 141
rotation 0,000 0,122 0,000 0,992
position -34,594 0,000 -19,594 0,000
item_flag 00 00 00 00 00 00 00 00 00 00 00 00 00 00 00 00 00 00 00 00 04 00 00 00
byte_flag 02 00 00 00 00 00 00 00 00 00 00 00 00 00 00 20 00 00 00 00
OPT_INT_54 -1
OPT_INT_51 1
OPT_INT_53 1
OPT_INT_52 0
OPT_INT_72 0
OPT_INT_55 1
OPT_VERTEX_19 10,000 15,000 8,000 0,000

object oa_bonus_collision
id 140
rotation 0,000 -0,122 0,000 0,992
position 34,594 0,000 -19,594 0,000
item_flag 00 00 00 00 00 00 00 00 00 00 00 00 00 00 00 00 00 00 00 00 04 00 00 00
byte_flag 02 00 00 00 00 00 00 00 00 00 00 00 00 00 00 20 00 00 00 00
OPT_INT_54 -1
OPT_INT_51 1
OPT_INT_53 1
OPT_INT_52 0
OPT_INT_72 0
OPT_INT_55 1
OPT_VERTEX_19 10,000 15,000 8,000 0,000

object oa_bonus_collision
id 139
rotation 0,000 0,000 0,000 1,000
position 0,000 -15,000 10,000 0,000
item_flag 00 00 00 00 00 00 00 00 00 00 00 00 00 00 00 00 00 00 00 00 04 00 00 00
byte_flag 02 00 00 00 00 00 00 00 00 00 00 00 00 00 00 20 00 00 00 00
OPT_INT_54 -1
OPT_INT_51 1
OPT_INT_53 1
OPT_INT_52 0
OPT_INT_72 0
OPT_INT_55 1
OPT_VERTEX_19 160,000 10,000 160,000 0,000

object oa_bonus_collision
id 138
rotation 0,000 0,000 0,000 1,000
position 0,000 35,000 10,000 0,000
item_flag 00 00 00 00 00 00 00 00 00 00 00 00 00 00 00 00 00 00 00 00 04 00 00 00
byte_flag 02 00 00 00 00 00 00 00 00 00 00 00 00 00 00 20 00 00 00 00
OPT_INT_54 -1
OPT_INT_51 1
OPT_INT_53 1
OPT_INT_52 0
OPT_INT_72 0
OPT_INT_55 1
OPT_VERTEX_19 160,000 10,000 160,000 0,000

object oa_bonus_collision
id 137
rotation 0,000 -0,866 0,000 0,500
position 46,094 0,000 54,000 0,000
item_flag 00 00 00 00 00 00 00 00 00 00 00 00 00 00 00 00 00 00 00 00 04 00 00 00
byte_flag 02 00 00 00 00 00 00 00 00 00 00 00 00 00 00 20 00 00 00 00
OPT_INT_54 -1
OPT_INT_51 1
OPT_INT_53 1
OPT_INT_52 0
OPT_INT_72 0
OPT_INT_55 1
OPT_VERTEX_19 90,000 80,000 5,000 0,000

object oa_bonus_collision
id 136
rotation 0,000 -0,707 0,000 0,707
position 68,188 0,000 -3,898 0,000
item_flag 00 00 00 00 00 00 00 00 00 00 00 00 00 00 00 00 00 00 00 00 04 00 00 00
byte_flag 02 00 00 00 00 00 00 00 00 00 00 00 00 00 00 20 00 00 00 00
OPT_INT_54 -1
OPT_INT_51 1
OPT_INT_53 1
OPT_INT_52 0
OPT_INT_72 0
OPT_INT_55 1
OPT_VERTEX_19 40,000 80,000 5,000 0,000

object oa_bonus_collision
id 135
rotation 0,000 -0,342 0,000 0,939
position 46,375 0,000 -41,188 0,000
item_flag 00 00 00 00 00 00 00 00 00 00 00 00 00 00 00 00 00 00 00 00 04 00 00 00
byte_flag 02 00 00 00 00 00 00 00 00 00 00 00 00 00 00 20 00 00 00 00
OPT_INT_54 -1
OPT_INT_51 1
OPT_INT_53 1
OPT_INT_52 0
OPT_INT_72 0
OPT_INT_55 1
OPT_VERTEX_19 60,000 80,000 5,000 0,000

object oa_bonus_collision
id 134
rotation 0,000 0,000 0,000 1,000
position -1,300 0,000 91,563 0,000
item_flag 00 00 00 00 00 00 00 00 00 00 00 00 00 00 00 00 00 00 00 00 04 00 00 00
byte_flag 02 00 00 00 00 00 00 00 00 00 00 00 00 00 00 20 00 00 00 00
OPT_INT_54 -1
OPT_INT_51 1
OPT_INT_53 1
OPT_INT_52 0
OPT_INT_72 0
OPT_INT_55 1
OPT_VERTEX_19 50,000 80,000 5,000 0,000

object oa_bonus_collision
id 133
rotation 0,000 0,866 0,000 0,500
position -46,094 0,000 54,000 0,000
item_flag 00 00 00 00 00 00 00 00 00 00 00 00 00 00 00 00 00 00 00 00 04 00 00 00
byte_flag 02 00 00 00 00 00 00 00 00 00 00 00 00 00 00 20 00 00 00 00
OPT_INT_54 -1
OPT_INT_51 1
OPT_INT_53 1
OPT_INT_52 0
OPT_INT_72 0
OPT_INT_55 1
OPT_VERTEX_19 90,000 80,000 5,000 0,000

object oa_bonus_collision
id 132
rotation 0,000 0,707 0,000 0,707
position -68,188 0,000 -3,898 0,000
item_flag 00 00 00 00 00 00 00 00 00 00 00 00 00 00 00 00 00 00 00 00 04 00 00 00
byte_flag 02 00 00 00 00 00 00 00 00 00 00 00 00 00 00 20 00 00 00 00
OPT_INT_54 -1
OPT_INT_51 1
OPT_INT_53 1
OPT_INT_52 0
OPT_INT_72 0
OPT_INT_55 1
OPT_VERTEX_19 40,000 80,000 5,000 0,000

object oa_bonus_collision
id 131
rotation 0,000 0,342 0,000 0,939
position -46,375 0,000 -41,188 0,000
item_flag 00 00 00 00 00 00 00 00 00 00 00 00 00 00 00 00 00 00 00 00 04 00 00 00
byte_flag 02 00 00 00 00 00 00 00 00 00 00 00 00 00 00 20 00 00 00 00
OPT_INT_54 -1
OPT_INT_51 1
OPT_INT_53 1
OPT_INT_52 0
OPT_INT_72 0
OPT_INT_55 1
OPT_VERTEX_19 60,000 80,000 5,000 0,000

object oa_bonus_collision
id 130
rotation 0,000 0,000 0,000 1,000
position 0,000 0,000 -60,000 0,000
item_flag 00 00 00 00 00 00 00 00 00 00 00 00 00 00 00 00 00 00 00 00 04 00 00 00
byte_flag 02 00 00 00 00 00 00 00 00 00 00 00 00 00 00 20 00 00 00 00
OPT_INT_54 -1
OPT_INT_51 1
OPT_INT_53 1
OPT_INT_52 0
OPT_INT_72 0
OPT_INT_55 1
OPT_VERTEX_19 50,000 80,000 5,000 0,000

object oa_body_collision
id 129
rotation 0,000 0,000 0,000 1,000
position 0,000 1,619 -47,000 0,000
item_flag 00 00 00 00 00 00 00 00 00 00 00 00 00 00 00 00 00 00 00 00 04 00 00 00
byte_flag 02 00 00 00 00 00 00 00 00 00 00 00 00 00 00 20 00 00 00 00
OPT_INT_54 -1
OPT_INT_51 1
OPT_INT_53 1
OPT_INT_52 0
OPT_INT_72 0
OPT_INT_62 0
OPT_INT_63 0
OPT_INT_55 1
OPT_VERTEX_19 20,000 80,000 10,000 0,000

npc Npc_CQOperator
id 128
rotation 0,000 0,000 0,000 1,000
position -4,387 2,398 46,469 0,000

npc Npc_CQCounterQuestA
id 127
rotation 0,000 0,122 0,000 0,992
position -34,000 0,200 -15,695 0,000

npc Npc_CQCounterQuestB
id 126
rotation 0,000 -0,122 0,000 0,992
position 34,000 0,200 -15,695 0,000

object oa_transfer_machine
id 125
rotation 0,000 1,000 0,000 0,000
position 0,000 2,119 80,000 0,000
item_flag 11 00 00 00 00 00 00 00 00 00 00 00 00 00 00 00 00 00 00 00 04 00 00 00
byte_flag 02 00 00 00 00 00 00 00 00 00 00 00 00 00 00 00 00 00 F0 3B
OPT_INT_54 0
OPT_INT_51 1
OPT_INT_53 1
OPT_INT_56 0
OPT_INT_63 1
OPT_INT_71 0
OPT_INT_64 50
OPT_INT_62 2
OPT_INT_67 0
OPT_INT_70 1
OPT_FLOAT_60 2

object oa_transfer_machine
id 124
rotation 0,000 0,000 0,000 1,000
position -45,000 0,000 14,797 0,000
item_flag 11 00 00 00 00 00 00 00 00 00 00 00 00 00 00 00 00 00 00 00 04 00 00 00
byte_flag 02 00 00 00 00 00 00 00 00 00 00 00 00 00 00 00 00 00 F0 3B
OPT_INT_54 0
OPT_INT_51 1
OPT_INT_53 1
OPT_INT_56 0
OPT_INT_63 1
OPT_INT_71 0
OPT_INT_64 23
OPT_INT_62 2
OPT_INT_67 0
OPT_INT_70 1
OPT_FLOAT_60 2

object oa_transfer_machine
id 123
rotation 0,000 0,000 0,000 1,000
position 0,000 0,000 -33,000 0,000
item_flag 11 00 00 00 00 00 00 00 00 00 00 00 00 00 00 00 00 00 00 00 04 00 00 00
byte_flag 02 00 00 00 00 00 00 00 00 00 00 00 00 00 00 00 00 00 F0 3B
OPT_INT_54 0
OPT_INT_51 1
OPT_INT_53 1
OPT_INT_56 0
OPT_INT_63 1
OPT_INT_71 0
OPT_INT_64 -1
OPT_INT_62 1
OPT_INT_67 0
OPT_INT_70 1
OPT_FLOAT_60 4

object oa_transfer_machine
id 122
rotation 0,000 0,000 0,000 1,000
position 45,000 0,000 14,000 0,000
item_flag 11 00 00 00 00 00 00 00 00 00 00 00 00 00 00 00 00 00 00 00 04 00 00 00
byte_flag 02 00 00 00 00 00 00 00 00 00 00 00 00 00 00 00 00 00 F0 3B
OPT_INT_54 0
OPT_INT_51 1
OPT_INT_53 1
OPT_INT_56 0
OPT_INT_63 1
OPT_INT_71 0
OPT_INT_64 21
OPT_INT_62 2
OPT_INT_67 0
OPT_INT_70 1
OPT_FLOAT_60 2

object oa_sit_point
id 121
rotation 0,000 0,857 0,000 -0,515
position 31,938 0,010 19,078 0,000
item_flag 2A 00 00 00 78 00 00 00 00 00 00 00 06 00 00 00 00 00 00 00 04 00 00 00
byte_flag 02 00 00 00 00 00 00 00 00 00 00 00 00 00 00 20 00 00 00 00
OPT_INT_54 -1
OPT_INT_51 1
OPT_INT_53 1
OPT_INT_62 1
OPT_INT_64 1
OPT_ID_9 0
OPT_ID_0 120

object ob_0180_0014
id 120
rotation 0,000 0,857 0,000 -0,515
position 31,938 0,010 19,078 0,000
item_flag 00 00 00 00 00 00 00 00 00 00 00 00 00 00 00 00 00 00 00 00 04 00 00 00
byte_flag 02 00 00 00 00 00 00 00 00 00 00 00 00 00 00 A0 00 80 FA D9
OPT_INT_54 -1
OPT_INT_51 1
OPT_INT_53 1
OPT_INT_52 0
OPT_INT_55 1

object oa_sit_point
id 119
rotation 0,000 0,927 0,000 -0,375
position 31,000 0,010 20,406 0,000
item_flag 2A 00 00 00 76 00 00 00 00 00 00 00 06 00 00 00 00 00 00 00 04 00 00 00
byte_flag 02 00 00 00 00 00 00 00 00 00 00 00 00 00 00 20 00 00 00 00
OPT_INT_54 -1
OPT_INT_51 1
OPT_INT_53 1
OPT_INT_62 1
OPT_INT_64 1
OPT_ID_9 0
OPT_ID_0 118

object ob_0180_0014
id 118
rotation 0,000 0,927 0,000 -0,375
position 31,000 0,010 20,406 0,000
item_flag 00 00 00 00 00 00 00 00 00 00 00 00 00 00 00 00 00 00 00 00 04 00 00 00
byte_flag 02 00 00 00 00 00 00 00 00 00 00 00 00 00 00 A0 00 80 FA D9
OPT_INT_54 -1
OPT_INT_51 1
OPT_INT_53 1
OPT_INT_52 0
OPT_INT_55 1

object oa_sit_point
id 117
rotation 0,000 0,976 0,000 -0,216
position 29,672 0,010 21,359 0,000
item_flag 2A 00 00 00 74 00 00 00 00 00 00 00 06 00 00 00 00 00 00 00 04 00 00 00
byte_flag 02 00 00 00 00 00 00 00 00 00 00 00 00 00 00 20 00 00 00 00
OPT_INT_54 -1
OPT_INT_51 1
OPT_INT_53 1
OPT_INT_62 1
OPT_INT_64 1
OPT_ID_9 0
OPT_ID_0 116

object ob_0180_0014
id 116
rotation 0,000 0,976 0,000 -0,216
position 29,672 0,010 21,359 0,000
item_flag 00 00 00 00 00 00 00 00 00 00 00 00 00 00 00 00 00 00 00 00 04 00 00 00
byte_flag 02 00 00 00 00 00 00 00 00 00 00 00 00 00 00 A0 00 80 FA D9
OPT_INT_54 -1
OPT_INT_51 1
OPT_INT_53 1
OPT_INT_52 0
OPT_INT_55 1

object oa_sit_point
id 115
rotation 0,000 0,998 0,000 -0,061
position 28,125 0,010 21,859 0,000
item_flag 2A 00 00 00 72 00 00 00 00 00 00 00 06 00 00 00 00 00 00 00 04 00 00 00
byte_flag 02 00 00 00 00 00 00 00 00 00 00 00 00 00 00 20 00 00 00 00
OPT_INT_54 -1
OPT_INT_51 1
OPT_INT_53 1
OPT_INT_62 1
OPT_INT_64 1
OPT_ID_9 0
OPT_ID_0 114

object ob_0180_0014
id 114
rotation 0,000 0,998 0,000 -0,061
position 28,125 0,010 21,859 0,000
item_flag 00 00 00 00 00 00 00 00 00 00 00 00 00 00 00 00 00 00 00 00 04 00 00 00
byte_flag 02 00 00 00 00 00 00 00 00 00 00 00 00 00 00 A0 00 80 FA D9
OPT_INT_54 -1
OPT_INT_51 1
OPT_INT_53 1
OPT_INT_52 0
OPT_INT_55 1

object oa_sit_point
id 113
rotation 0,000 0,996 0,000 0,087
position 26,469 0,010 21,859 0,000
item_flag 2A 00 00 00 70 00 00 00 00 00 00 00 06 00 00 00 00 00 00 00 04 00 00 00
byte_flag 02 00 00 00 00 00 00 00 00 00 00 00 00 00 00 20 00 00 00 00
OPT_INT_54 -1
OPT_INT_51 1
OPT_INT_53 1
OPT_INT_62 1
OPT_INT_64 1
OPT_ID_9 0
OPT_ID_0 112

object ob_0180_0014
id 112
rotation 0,000 0,996 0,000 0,087
position 26,469 0,010 21,859 0,000
item_flag 00 00 00 00 00 00 00 00 00 00 00 00 00 00 00 00 00 00 00 00 04 00 00 00
byte_flag 02 00 00 00 00 00 00 00 00 00 00 00 00 00 00 A0 00 80 FA D9
OPT_INT_54 -1
OPT_INT_51 1
OPT_INT_53 1
OPT_INT_52 0
OPT_INT_55 1

object oa_sit_point
id 111
rotation 0,000 0,970 0,000 0,242
position 24,938 0,010 21,375 0,000
item_flag 2A 00 00 00 6E 00 00 00 00 00 00 00 06 00 00 00 00 00 00 00 04 00 00 00
byte_flag 02 00 00 00 00 00 00 00 00 00 00 00 00 00 00 20 00 00 00 00
OPT_INT_54 -1
OPT_INT_51 1
OPT_INT_53 1
OPT_INT_62 1
OPT_INT_64 1
OPT_ID_9 0
OPT_ID_0 110

object ob_0180_0014
id 110
rotation 0,000 0,970 0,000 0,242
position 24,938 0,010 21,375 0,000
item_flag 00 00 00 00 00 00 00 00 00 00 00 00 00 00 00 00 00 00 00 00 04 00 00 00
byte_flag 02 00 00 00 00 00 00 00 00 00 00 00 00 00 00 A0 00 80 FA D9
OPT_INT_54 -1
OPT_INT_51 1
OPT_INT_53 1
OPT_INT_52 0
OPT_INT_55 1

object oa_sit_point
id 109
rotation 0,000 0,917 0,000 0,399
position 23,578 0,010 20,375 0,000
item_flag 2A 00 00 00 6C 00 00 00 00 00 00 00 06 00 00 00 00 00 00 00 04 00 00 00
byte_flag 02 00 00 00 00 00 00 00 00 00 00 00 00 00 00 20 00 00 00 00
OPT_INT_54 -1
OPT_INT_51 1
OPT_INT_53 1
OPT_INT_62 1
OPT_INT_64 1
OPT_ID_9 0
OPT_ID_0 108

object ob_0180_0014
id 108
rotation 0,000 0,917 0,000 0,399
position 23,578 0,010 20,375 0,000
item_flag 00 00 00 00 00 00 00 00 00 00 00 00 00 00 00 00 00 00 00 00 04 00 00 00
byte_flag 02 00 00 00 00 00 00 00 00 00 00 00 00 00 00 A0 00 80 FA D9
OPT_INT_54 -1
OPT_INT_51 1
OPT_INT_53 1
OPT_INT_52 0
OPT_INT_55 1

object oa_sit_point
id 107
rotation 0,000 0,848 0,000 0,530
position 22,625 0,010 19,047 0,000
item_flag 2A 00 00 00 6A 00 00 00 00 00 00 00 06 00 00 00 00 00 00 00 04 00 00 00
byte_flag 02 00 00 00 00 00 00 00 00 00 00 00 00 00 00 20 00 00 00 00
OPT_INT_54 -1
OPT_INT_51 1
OPT_INT_53 1
OPT_INT_62 1
OPT_INT_64 1
OPT_ID_9 0
OPT_ID_0 106

object ob_0180_0014
id 106
rotation 0,000 0,848 0,000 0,530
position 22,625 0,010 19,047 0,000
item_flag 00 00 00 00 00 00 00 00 00 00 00 00 00 00 00 00 00 00 00 00 04 00 00 00
byte_flag 02 00 00 00 00 00 00 00 00 00 00 00 00 00 00 A0 00 80 FA D9
OPT_INT_54 -1
OPT_INT_51 1
OPT_INT_53 1
OPT_INT_52 0
OPT_INT_55 1

object oa_sit_point
id 105
rotation 0,000 -0,122 0,000 0,992
position 43,906 0,010 -11,227 0,000
item_flag 2A 00 00 00 68 00 00 00 00 00 00 00 06 00 00 00 00 00 00 00 04 00 00 00
byte_flag 02 00 00 00 00 00 00 00 00 00 00 00 00 00 00 20 00 00 00 00
OPT_INT_54 -1
OPT_INT_51 1
OPT_INT_53 1
OPT_INT_62 1
OPT_INT_64 1
OPT_ID_9 0
OPT_ID_0 104

object ob_0180_0014
id 104
rotation 0,000 -0,122 0,000 0,992
position 43,906 0,010 -11,227 0,000
item_flag 00 00 00 00 00 00 00 00 00 00 00 00 00 00 00 00 00 00 00 00 04 00 00 00
byte_flag 02 00 00 00 00 00 00 00 00 00 00 00 00 00 00 A0 00 80 FA D9
OPT_INT_54 -1
OPT_INT_51 1
OPT_INT_53 1
OPT_INT_52 0
OPT_INT_55 1

object oa_sit_point
id 103
rotation 0,000 -0,122 0,000 0,992
position 45,000 0,010 -10,945 0,000
item_flag 2A 00 00 00 66 00 00 00 00 00 00 00 06 00 00 00 00 00 00 00 04 00 00 00
byte_flag 02 00 00 00 00 00 00 00 00 00 00 00 00 00 00 20 00 00 00 00
OPT_INT_54 -1
OPT_INT_51 1
OPT_INT_53 1
OPT_INT_62 1
OPT_INT_64 1
OPT_ID_9 0
OPT_ID_0 102

object ob_0180_0014
id 102
rotation 0,000 -0,122 0,000 0,992
position 45,000 0,010 -10,945 0,000
item_flag 00 00 00 00 00 00 00 00 00 00 00 00 00 00 00 00 00 00 00 00 04 00 00 00
byte_flag 02 00 00 00 00 00 00 00 00 00 00 00 00 00 00 A0 00 80 FA D9
OPT_INT_54 -1
OPT_INT_51 1
OPT_INT_53 1
OPT_INT_52 0
OPT_INT_55 1

object oa_sit_point
id 101
rotation 0,000 -0,469 0,000 0,883
position 46,594 0,010 -9,773 0,000
item_flag 2A 00 00 00 64 00 00 00 00 00 00 00 06 00 00 00 00 00 00 00 04 00 00 00
byte_flag 02 00 00 00 00 00 00 00 00 00 00 00 00 00 00 20 00 00 00 00
OPT_INT_54 -1
OPT_INT_51 1
OPT_INT_53 1
OPT_INT_62 1
OPT_INT_64 1
OPT_ID_9 0
OPT_ID_0 100

object ob_0180_0014
id 100
rotation 0,000 -0,469 0,000 0,883
position 46,594 0,010 -9,773 0,000
item_flag 00 00 00 00 00 00 00 00 00 00 00 00 00 00 00 00 00 00 00 00 04 00 00 00
byte_flag 02 00 00 00 00 00 00 00 00 00 00 00 00 00 00 A0 00 80 FA D9
OPT_INT_54 -1
OPT_INT_51 1
OPT_INT_53 1
OPT_INT_52 0
OPT_INT_55 1

object oa_sit_point
id 99
rotation 0,000 -0,462 0,000 0,887
position 47,313 0,010 -8,703 0,000
item_flag 2A 00 00 00 62 00 00 00 00 00 00 00 06 00 00 00 00 00 00 00 04 00 00 00
byte_flag 02 00 00 00 00 00 00 00 00 00 00 00 00 00 00 20 00 00 00 00
OPT_INT_54 -1
OPT_INT_51 1
OPT_INT_53 1
OPT_INT_62 1
OPT_INT_64 1
OPT_ID_9 0
OPT_ID_0 98

object ob_0180_0014
id 98
rotation 0,000 -0,462 0,000 0,887
position 47,313 0,010 -8,703 0,000
item_flag 00 00 00 00 00 00 00 00 00 00 00 00 00 00 00 00 00 00 00 00 04 00 00 00
byte_flag 02 00 00 00 00 00 00 00 00 00 00 00 00 00 00 A0 00 80 FA D9
OPT_INT_54 -1
OPT_INT_51 1
OPT_INT_53 1
OPT_INT_52 0
OPT_INT_55 1

object oa_sit_point
id 97
rotation 0,000 -0,688 0,000 0,725
position 48,031 0,010 -6,207 0,000
item_flag 2A 00 00 00 60 00 00 00 00 00 00 00 06 00 00 00 00 00 00 00 04 00 00 00
byte_flag 02 00 00 00 00 00 00 00 00 00 00 00 00 00 00 20 00 00 00 00
OPT_INT_54 -1
OPT_INT_51 1
OPT_INT_53 1
OPT_INT_62 1
OPT_INT_64 1
OPT_ID_9 0
OPT_ID_0 96

object ob_0180_0014
id 96
rotation 0,000 -0,688 0,000 0,725
position 48,031 0,010 -6,207 0,000
item_flag 00 00 00 00 00 00 00 00 00 00 00 00 00 00 00 00 00 00 00 00 04 00 00 00
byte_flag 02 00 00 00 00 00 00 00 00 00 00 00 00 00 00 A0 00 80 FA D9
OPT_INT_54 -1
OPT_INT_51 1
OPT_INT_53 1
OPT_INT_52 0
OPT_INT_55 1

object oa_sit_point
id 95
rotation 0,000 -0,694 0,000 0,719
position 48,125 0,010 -4,566 0,000
item_flag 2A 00 00 00 5E 00 00 00 00 00 00 00 06 00 00 00 00 00 00 00 04 00 00 00
byte_flag 02 00 00 00 00 00 00 00 00 00 00 00 00 00 00 20 00 00 00 00
OPT_INT_54 -1
OPT_INT_51 1
OPT_INT_53 1
OPT_INT_62 1
OPT_INT_64 1
OPT_ID_9 0
OPT_ID_0 94

object ob_0180_0014
id 94
rotation 0,000 -0,694 0,000 0,719
position 48,125 0,010 -4,566 0,000
item_flag 00 00 00 00 00 00 00 00 00 00 00 00 00 00 00 00 00 00 00 00 04 00 00 00
byte_flag 02 00 00 00 00 00 00 00 00 00 00 00 00 00 00 A0 00 80 FA D9
OPT_INT_54 -1
OPT_INT_51 1
OPT_INT_53 1
OPT_INT_52 0
OPT_INT_55 1

object oa_sit_point
id 93
rotation 0,000 -0,688 0,000 0,725
position 48,188 0,010 -2,908 0,000
item_flag 2A 00 00 00 5C 00 00 00 00 00 00 00 06 00 00 00 00 00 00 00 04 00 00 00
byte_flag 02 00 00 00 00 00 00 00 00 00 00 00 00 00 00 20 00 00 00 00
OPT_INT_54 -1
OPT_INT_51 1
OPT_INT_53 1
OPT_INT_62 1
OPT_INT_64 1
OPT_ID_9 0
OPT_ID_0 92

object ob_0180_0014
id 92
rotation 0,000 -0,688 0,000 0,725
position 48,188 0,010 -2,908 0,000
item_flag 00 00 00 00 00 00 00 00 00 00 00 00 00 00 00 00 00 00 00 00 04 00 00 00
byte_flag 02 00 00 00 00 00 00 00 00 00 00 00 00 00 00 A0 00 80 FA D9
OPT_INT_54 -1
OPT_INT_51 1
OPT_INT_53 1
OPT_INT_52 0
OPT_INT_55 1

object oa_sit_point
id 91
rotation 0,000 -0,688 0,000 0,725
position 48,281 0,010 -1,189 0,000
item_flag 2A 00 00 00 5A 00 00 00 00 00 00 00 06 00 00 00 00 00 00 00 04 00 00 00
byte_flag 02 00 00 00 00 00 00 00 00 00 00 00 00 00 00 20 00 00 00 00
OPT_INT_54 -1
OPT_INT_51 1
OPT_INT_53 1
OPT_INT_62 1
OPT_INT_64 1
OPT_ID_9 0
OPT_ID_0 90

object ob_0180_0014
id 90
rotation 0,000 -0,688 0,000 0,725
position 48,281 0,010 -1,189 0,000
item_flag 00 00 00 00 00 00 00 00 00 00 00 00 00 00 00 00 00 00 00 00 04 00 00 00
byte_flag 02 00 00 00 00 00 00 00 00 00 00 00 00 00 00 A0 00 80 FA D9
OPT_INT_54 -1
OPT_INT_51 1
OPT_INT_53 1
OPT_INT_52 0
OPT_INT_55 1

object oa_sit_point
id 89
rotation 0,000 -0,853 0,000 0,522
position 47,750 0,010 1,390 0,000
item_flag 2A 00 00 00 58 00 00 00 00 00 00 00 06 00 00 00 00 00 00 00 04 00 00 00
byte_flag 02 00 00 00 00 00 00 00 00 00 00 00 00 00 00 20 00 00 00 00
OPT_INT_54 -1
OPT_INT_51 1
OPT_INT_53 1
OPT_INT_62 1
OPT_INT_64 1
OPT_ID_9 0
OPT_ID_0 88

object ob_0180_0014
id 88
rotation 0,000 -0,853 0,000 0,522
position 47,750 0,010 1,390 0,000
item_flag 00 00 00 00 00 00 00 00 00 00 00 00 00 00 00 00 00 00 00 00 04 00 00 00
byte_flag 02 00 00 00 00 00 00 00 00 00 00 00 00 00 00 A0 00 80 FA D9
OPT_INT_54 -1
OPT_INT_51 1
OPT_INT_53 1
OPT_INT_52 0
OPT_INT_55 1

object oa_sit_point
id 23
rotation 0,000 0,044 0,000 0,999
position -15,516 0,010 -23,438 0,000
item_flag 2A 00 00 00 16 00 00 00 00 00 00 00 06 00 00 00 00 00 00 00 04 00 00 00
byte_flag 02 00 00 00 00 00 00 00 00 00 00 00 00 00 00 20 00 00 00 00
OPT_INT_54 -1
OPT_INT_51 1
OPT_INT_53 1
OPT_INT_62 1
OPT_INT_64 1
OPT_ID_9 0
OPT_ID_0 22

object ob_0180_0014
id 22
rotation 0,000 0,044 0,000 0,999
position -15,516 0,010 -23,438 0,000
item_flag 00 00 00 00 00 00 00 00 00 00 00 00 00 00 00 00 00 00 00 00 04 00 00 00
byte_flag 02 00 00 00 00 00 00 00 00 00 00 00 00 00 00 A0 00 80 FA D9
OPT_INT_54 -1
OPT_INT_51 1
OPT_INT_53 1
OPT_INT_52 0
OPT_INT_55 1

object oa_sit_point
id 21
rotation 0,000 0,044 0,000 0,999
position -16,922 0,010 -23,313 0,000
item_flag 2A 00 00 00 14 00 00 00 00 00 00 00 06 00 00 00 00 00 00 00 04 00 00 00
byte_flag 02 00 00 00 00 00 00 00 00 00 00 00 00 00 00 20 00 00 00 00
OPT_INT_54 -1
OPT_INT_51 1
OPT_INT_53 1
OPT_INT_62 1
OPT_INT_64 1
OPT_ID_9 0
OPT_ID_0 20

object ob_0180_0014
id 20
rotation 0,000 0,044 0,000 0,999
position -16,922 0,010 -23,313 0,000
item_flag 00 00 00 00 00 00 00 00 00 00 00 00 00 00 00 00 00 00 00 00 04 00 00 00
byte_flag 02 00 00 00 00 00 00 00 00 00 00 00 00 00 00 A0 00 80 FA D9
OPT_INT_54 -1
OPT_INT_51 1
OPT_INT_53 1
OPT_INT_52 0
OPT_INT_55 1

object oa_sit_point
id 19
rotation 0,000 0,438 0,000 0,898
position -18,141 0,010 -22,625 0,000
item_flag 2A 00 00 00 12 00 00 00 00 00 00 00 06 00 00 00 00 00 00 00 04 00 00 00
byte_flag 02 00 00 00 00 00 00 00 00 00 00 00 00 00 00 20 00 00 00 00
OPT_INT_54 -1
OPT_INT_51 1
OPT_INT_53 1
OPT_INT_62 1
OPT_INT_64 1
OPT_ID_9 0
OPT_ID_0 18

object ob_0180_0014
id 18
rotation 0,000 0,438 0,000 0,898
position -18,141 0,010 -22,625 0,000
item_flag 00 00 00 00 00 00 00 00 00 00 00 00 00 00 00 00 00 00 00 00 04 00 00 00
byte_flag 02 00 00 00 00 00 00 00 00 00 00 00 00 00 00 A0 00 80 FA D9
OPT_INT_54 -1
OPT_INT_51 1
OPT_INT_53 1
OPT_INT_52 0
OPT_INT_55 1

object oa_sit_point
id 17
rotation 0,000 0,454 0,000 0,891
position -19,031 0,010 -21,406 0,000
item_flag 2A 00 00 00 10 00 00 00 00 00 00 00 06 00 00 00 00 00 00 00 04 00 00 00
byte_flag 02 00 00 00 00 00 00 00 00 00 00 00 00 00 00 20 00 00 00 00
OPT_INT_54 -1
OPT_INT_51 1
OPT_INT_53 1
OPT_INT_62 1
OPT_INT_64 1
OPT_ID_9 0
OPT_ID_0 16

object ob_0180_0014
id 16
rotation 0,000 0,454 0,000 0,891
position -19,031 0,010 -21,406 0,000
item_flag 00 00 00 00 00 00 00 00 00 00 00 00 00 00 00 00 00 00 00 00 04 00 00 00
byte_flag 02 00 00 00 00 00 00 00 00 00 00 00 00 00 00 A0 00 80 FA D9
OPT_INT_54 -1
OPT_INT_51 1
OPT_INT_53 1
OPT_INT_52 0
OPT_INT_55 1

object oa_sit_point
id 15
rotation 0,000 0,454 0,000 0,891
position -19,875 0,010 -20,219 0,000
item_flag 2A 00 00 00 0E 00 00 00 00 00 00 00 06 00 00 00 00 00 00 00 04 00 00 00
byte_flag 02 00 00 00 00 00 00 00 00 00 00 00 00 00 00 20 00 00 00 00
OPT_INT_54 -1
OPT_INT_51 1
OPT_INT_53 1
OPT_INT_62 1
OPT_INT_64 1
OPT_ID_9 0
OPT_ID_0 14

object ob_0180_0014
id 14
rotation 0,000 0,454 0,000 0,891
position -19,875 0,010 -20,219 0,000
item_flag 00 00 00 00 00 00 00 00 00 00 00 00 00 00 00 00 00 00 00 00 04 00 00 00
byte_flag 02 00 00 00 00 00 00 00 00 00 00 00 00 00 00 A0 00 80 FA D9
OPT_INT_54 -1
OPT_INT_51 1
OPT_INT_53 1
OPT_INT_52 0
OPT_INT_55 1

object oa_sit_point
id 13
rotation 0,000 0,454 0,000 0,891
position -20,781 0,010 -18,984 0,000
item_flag 2A 00 00 00 0C 00 00 00 00 00 00 00 06 00 00 00 00 00 00 00 04 00 00 00
byte_flag 02 00 00 00 00 00 00 00 00 00 00 00 00 00 00 20 00 00 00 00
OPT_INT_54 -1
OPT_INT_51 1
OPT_INT_53 1
OPT_INT_62 1
OPT_INT_64 1
OPT_ID_9 0
OPT_ID_0 12

object ob_0180_0014
id 12
rotation 0,000 0,454 0,000 0,891
position -20,781 0,010 -18,984 0,000
item_flag 00 00 00 00 00 00 00 00 00 00 00 00 00 00 00 00 00 00 00 00 04 00 00 00
byte_flag 02 00 00 00 00 00 00 00 00 00 00 00 00 00 00 A0 00 80 FA D9
OPT_INT_54 -1
OPT_INT_51 1
OPT_INT_53 1
OPT_INT_52 0
OPT_INT_55 1

object oa_sit_point
id 11
rotation 0,000 0,454 0,000 0,891
position -21,672 0,010 -17,750 0,000
item_flag 2A 00 00 00 0A 00 00 00 00 00 00 00 06 00 00 00 00 00 00 00 04 00 00 00
byte_flag 02 00 00 00 00 00 00 00 00 00 00 00 00 00 00 20 00 00 00 00
OPT_INT_54 -1
OPT_INT_51 1
OPT_INT_53 1
OPT_INT_62 1
OPT_INT_64 1
OPT_ID_9 0
OPT_ID_0 10

object ob_0180_0014
id 10
rotation 0,000 0,454 0,000 0,891
position -21,672 0,010 -17,750 0,000
item_flag 00 00 00 00 00 00 00 00 00 00 00 00 00 00 00 00 00 00 00 00 04 00 00 00
byte_flag 02 00 00 00 00 00 00 00 00 00 00 00 00 00 00 A0 00 80 FA D9
OPT_INT_54 -1
OPT_INT_51 1
OPT_INT_53 1
OPT_INT_52 0
OPT_INT_55 1

object ob_0103_0011
id 9
rotation 0,000 0,000 0,000 1,000
position 0,000 0,000 -33,781 0,000
item_flag 00 00 00 00 00 00 00 00 00 00 00 00 00 00 00 00 00 00 00 00 04 00 00 00
byte_flag 02 00 00 00 00 00 00 00 00 00 00 00 00 00 00 20 00 80 FA D9
OPT_INT_54 -1
OPT_INT_51 1
OPT_INT_53 1
OPT_INT_52 0
OPT_INT_55 1

object ob_0103_0008
id 8
rotation 0,000 0,961 0,000 0,276
position 18,859 -4,000 39,063 0,000
item_flag 00 00 00 00 00 00 00 00 00 00 00 00 00 00 00 00 00 00 00 00 04 00 00 00
byte_flag 02 00 00 00 00 00 00 00 00 00 00 00 00 00 00 20 00 80 FA D9
OPT_INT_54 -1
OPT_INT_51 1
OPT_INT_53 1
OPT_INT_52 0
OPT_INT_55 1

object ob_0103_0008
id 7
rotation 0,000 0,485 0,000 0,875
position 18,859 -4,000 39,063 0,000
item_flag 00 00 00 00 00 00 00 00 00 00 00 00 00 00 00 00 00 00 00 00 04 00 00 00
byte_flag 02 00 00 00 00 00 00 00 00 00 00 00 00 00 00 20 00 80 FA D9
OPT_INT_54 -1
OPT_INT_51 1
OPT_INT_53 1
OPT_INT_52 0
OPT_INT_55 1

object ob_0103_0008
id 6
rotation 0,000 -0,275 0,000 0,961
position 18,859 -4,000 39,063 0,000
item_flag 00 00 00 00 00 00 00 00 00 00 00 00 00 00 00 00 00 00 00 00 04 00 00 00
byte_flag 02 00 00 00 00 00 00 00 00 00 00 00 00 00 00 20 00 80 FA D9
OPT_INT_54 -1
OPT_INT_51 1
OPT_INT_53 1
OPT_INT_52 0
OPT_INT_55 1

object ob_0103_0008
id 5
rotation 0,000 0,485 0,000 -0,875
position -18,859 -4,000 39,063 0,000
item_flag 00 00 00 00 00 00 00 00 00 00 00 00 00 00 00 00 00 00 00 00 04 00 00 00
byte_flag 02 00 00 00 00 00 00 00 00 00 00 00 00 00 00 20 00 80 FA D9
OPT_INT_54 -1
OPT_INT_51 1
OPT_INT_53 1
OPT_INT_52 0
OPT_INT_55 1

object ob_0103_0008
id 4
rotation 0,000 0,961 0,000 -0,275
position -18,859 -4,000 39,063 0,000
item_flag 00 00 00 00 00 00 00 00 00 00 00 00 00 00 00 00 00 00 00 00 04 00 00 00
byte_flag 02 00 00 00 00 00 00 00 00 00 00 00 00 00 00 20 00 80 FA D9
OPT_INT_54 -1
OPT_INT_51 1
OPT_INT_53 1
OPT_INT_52 0
OPT_INT_55 1

object ob_0103_0008
id 3
rotation 0,000 0,875 0,000 0,485
position -18,859 -4,000 39,063 0,000
item_flag 00 00 00 00 00 00 00 00 00 00 00 00 00 00 00 00 00 00 00 00 04 00 00 00
byte_flag 02 00 00 00 00 00 00 00 00 00 00 00 00 00 00 20 00 80 FA D9
OPT_INT_54 -1
OPT_INT_51 1
OPT_INT_53 1
OPT_INT_52 0
OPT_INT_55 1

object ob_0103_0008
id 2
rotation 0,000 0,275 0,000 0,961
position -18,859 -4,000 39,063 0,000
item_flag 00 00 00 00 00 00 00 00 00 00 00 00 00 00 00 00 00 00 00 00 04 00 00 00
byte_flag 02 00 00 00 00 00 00 00 00 00 00 00 00 00 00 20 00 80 FA D9
OPT_INT_54 -1
OPT_INT_51 1
OPT_INT_53 1
OPT_INT_52 0
OPT_INT_55 1

object ob_0103_0008
id 1
rotation 0,000 -0,875 0,000 0,485
position 18,859 -4,000 39,063 0,000
item_flag 00 00 00 00 00 00 00 00 00 00 00 00 00 00 00 00 00 00 00 00 04 00 00 00
byte_flag 02 00 00 00 00 00 00 00 00 00 00 00 00 00 00 20 00 80 FA D9
OPT_INT_54 -1
OPT_INT_51 1
OPT_INT_53 1
OPT_INT_52 0
OPT_INT_55 1

object oa_sit_point
id 87
rotation 0,000 -0,853 0,000 0,522
position 47,000 0,010 2,859 0,000
item_flag 2A 00 00 00 56 00 00 00 00 00 00 00 06 00 00 00 00 00 00 00 04 00 00 00
byte_flag 02 00 00 00 00 00 00 00 00 00 00 00 00 00 00 20 00 00 00 00
OPT_INT_54 -1
OPT_INT_51 1
OPT_INT_53 1
OPT_INT_62 1
OPT_INT_64 1
OPT_ID_9 0
OPT_ID_0 86

object ob_0180_0014
id 86
rotation 0,000 -0,853 0,000 0,522
position 47,000 0,010 2,859 0,000
item_flag 00 00 00 00 00 00 00 00 00 00 00 00 00 00 00 00 00 00 00 00 04 00 00 00
byte_flag 02 00 00 00 00 00 00 00 00 00 00 00 00 00 00 A0 00 80 FA D9
OPT_INT_54 -1
OPT_INT_51 1
OPT_INT_53 1
OPT_INT_52 0
OPT_INT_55 1

object oa_sit_point
id 85
rotation 0,000 -0,853 0,000 0,522
position 46,250 0,010 4,328 0,000
item_flag 2A 00 00 00 54 00 00 00 00 00 00 00 06 00 00 00 00 00 00 00 04 00 00 00
byte_flag 02 00 00 00 00 00 00 00 00 00 00 00 00 00 00 20 00 00 00 00
OPT_INT_54 -1
OPT_INT_51 1
OPT_INT_53 1
OPT_INT_62 1
OPT_INT_64 1
OPT_ID_9 0
OPT_ID_0 84

object ob_0180_0014
id 84
rotation 0,000 -0,853 0,000 0,522
position 46,250 0,010 4,328 0,000
item_flag 00 00 00 00 00 00 00 00 00 00 00 00 00 00 00 00 00 00 00 00 04 00 00 00
byte_flag 02 00 00 00 00 00 00 00 00 00 00 00 00 00 00 A0 00 80 FA D9
OPT_INT_54 -1
OPT_INT_51 1
OPT_INT_53 1
OPT_INT_52 0
OPT_INT_55 1

object oa_sit_point
id 83
rotation 0,000 -0,044 0,000 0,999
position 12,633 0,010 -23,672 0,000
item_flag 2A 00 00 00 52 00 00 00 00 00 00 00 06 00 00 00 00 00 00 00 04 00 00 00
byte_flag 02 00 00 00 00 00 00 00 00 00 00 00 00 00 00 20 00 00 00 00
OPT_INT_54 -1
OPT_INT_51 1
OPT_INT_53 1
OPT_INT_62 1
OPT_INT_64 1
OPT_ID_9 0
OPT_ID_0 82

object ob_0180_0014
id 82
rotation 0,000 -0,044 0,000 0,999
position 12,633 0,010 -23,672 0,000
item_flag 00 00 00 00 00 00 00 00 00 00 00 00 00 00 00 00 00 00 00 00 04 00 00 00
byte_flag 02 00 00 00 00 00 00 00 00 00 00 00 00 00 00 A0 00 80 FA D9
OPT_INT_54 -1
OPT_INT_51 1
OPT_INT_53 1
OPT_INT_52 0
OPT_INT_55 1

object oa_sit_point
id 81
rotation 0,000 -0,044 0,000 0,999
position 14,055 0,010 -23,547 0,000
item_flag 2A 00 00 00 50 00 00 00 00 00 00 00 06 00 00 00 00 00 00 00 04 00 00 00
byte_flag 02 00 00 00 00 00 00 00 00 00 00 00 00 00 00 20 00 00 00 00
OPT_INT_54 -1
OPT_INT_51 1
OPT_INT_53 1
OPT_INT_62 1
OPT_INT_64 1
OPT_ID_9 0
OPT_ID_0 80

object ob_0180_0014
id 80
rotation 0,000 -0,044 0,000 0,999
position 14,055 0,010 -23,547 0,000
item_flag 00 00 00 00 00 00 00 00 00 00 00 00 00 00 00 00 00 00 00 00 04 00 00 00
byte_flag 02 00 00 00 00 00 00 00 00 00 00 00 00 00 00 A0 00 80 FA D9
OPT_INT_54 -1
OPT_INT_51 1
OPT_INT_53 1
OPT_INT_52 0
OPT_INT_55 1

object oa_sit_point
id 79
rotation 0,000 -0,044 0,000 0,999
position 15,516 0,010 -23,438 0,000
item_flag 2A 00 00 00 4E 00 00 00 00 00 00 00 06 00 00 00 00 00 00 00 04 00 00 00
byte_flag 02 00 00 00 00 00 00 00 00 00 00 00 00 00 00 20 00 00 00 00
OPT_INT_54 -1
OPT_INT_51 1
OPT_INT_53 1
OPT_INT_62 1
OPT_INT_64 1
OPT_ID_9 0
OPT_ID_0 78

object ob_0180_0014
id 78
rotation 0,000 -0,044 0,000 0,999
position 15,516 0,010 -23,438 0,000
item_flag 00 00 00 00 00 00 00 00 00 00 00 00 00 00 00 00 00 00 00 00 04 00 00 00
byte_flag 02 00 00 00 00 00 00 00 00 00 00 00 00 00 00 A0 00 80 FA D9
OPT_INT_54 -1
OPT_INT_51 1
OPT_INT_53 1
OPT_INT_52 0
OPT_INT_55 1

object oa_sit_point
id 77
rotation 0,000 -0,044 0,000 0,999
position 16,922 0,010 -23,313 0,000
item_flag 2A 00 00 00 4C 00 00 00 00 00 00 00 06 00 00 00 00 00 00 00 04 00 00 00
byte_flag 02 00 00 00 00 00 00 00 00 00 00 00 00 00 00 20 00 00 00 00
OPT_INT_54 -1
OPT_INT_51 1
OPT_INT_53 1
OPT_INT_62 1
OPT_INT_64 1
OPT_ID_9 0
OPT_ID_0 76

object ob_0180_0014
id 76
rotation 0,000 -0,044 0,000 0,999
position 16,922 0,010 -23,313 0,000
item_flag 00 00 00 00 00 00 00 00 00 00 00 00 00 00 00 00 00 00 00 00 04 00 00 00
byte_flag 02 00 00 00 00 00 00 00 00 00 00 00 00 00 00 A0 00 80 FA D9
OPT_INT_54 -1
OPT_INT_51 1
OPT_INT_53 1
OPT_INT_52 0
OPT_INT_55 1

object oa_sit_point
id 75
rotation 0,000 -0,438 0,000 0,898
position 18,141 0,010 -22,625 0,000
item_flag 2A 00 00 00 4A 00 00 00 00 00 00 00 06 00 00 00 00 00 00 00 04 00 00 00
byte_flag 02 00 00 00 00 00 00 00 00 00 00 00 00 00 00 20 00 00 00 00
OPT_INT_54 -1
OPT_INT_51 1
OPT_INT_53 1
OPT_INT_62 1
OPT_INT_64 1
OPT_ID_9 0
OPT_ID_0 74

object ob_0180_0014
id 74
rotation 0,000 -0,438 0,000 0,898
position 18,141 0,010 -22,625 0,000
item_flag 00 00 00 00 00 00 00 00 00 00 00 00 00 00 00 00 00 00 00 00 04 00 00 00
byte_flag 02 00 00 00 00 00 00 00 00 00 00 00 00 00 00 A0 00 80 FA D9
OPT_INT_54 -1
OPT_INT_51 1
OPT_INT_53 1
OPT_INT_52 0
OPT_INT_55 1

object oa_sit_point
id 73
rotation 0,000 -0,454 0,000 0,891
position 19,031 0,010 -21,406 0,000
item_flag 2A 00 00 00 48 00 00 00 00 00 00 00 06 00 00 00 00 00 00 00 04 00 00 00
byte_flag 02 00 00 00 00 00 00 00 00 00 00 00 00 00 00 20 00 00 00 00
OPT_INT_54 -1
OPT_INT_51 1
OPT_INT_53 1
OPT_INT_62 1
OPT_INT_64 1
OPT_ID_9 0
OPT_ID_0 72

object ob_0180_0014
id 72
rotation 0,000 -0,454 0,000 0,891
position 19,031 0,010 -21,406 0,000
item_flag 00 00 00 00 00 00 00 00 00 00 00 00 00 00 00 00 00 00 00 00 04 00 00 00
byte_flag 02 00 00 00 00 00 00 00 00 00 00 00 00 00 00 A0 00 80 FA D9
OPT_INT_54 -1
OPT_INT_51 1
OPT_INT_53 1
OPT_INT_52 0
OPT_INT_55 1

object oa_sit_point
id 71
rotation 0,000 -0,454 0,000 0,891
position 19,875 0,010 -20,219 0,000
item_flag 2A 00 00 00 46 00 00 00 00 00 00 00 06 00 00 00 00 00 00 00 04 00 00 00
byte_flag 02 00 00 00 00 00 00 00 00 00 00 00 00 00 00 20 00 00 00 00
OPT_INT_54 -1
OPT_INT_51 1
OPT_INT_53 1
OPT_INT_62 1
OPT_INT_64 1
OPT_ID_9 0
OPT_ID_0 70

object ob_0180_0014
id 70
rotation 0,000 -0,454 0,000 0,891
position 19,875 0,010 -20,219 0,000
item_flag 00 00 00 00 00 00 00 00 00 00 00 00 00 00 00 00 00 00 00 00 04 00 00 00
byte_flag 02 00 00 00 00 00 00 00 00 00 00 00 00 00 00 A0 00 80 FA D9
OPT_INT_54 -1
OPT_INT_51 1
OPT_INT_53 1
OPT_INT_52 0
OPT_INT_55 1

object oa_sit_point
id 69
rotation 0,000 -0,454 0,000 0,891
position 20,781 0,010 -18,984 0,000
item_flag 2A 00 00 00 44 00 00 00 00 00 00 00 06 00 00 00 00 00 00 00 04 00 00 00
byte_flag 02 00 00 00 00 00 00 00 00 00 00 00 00 00 00 20 00 00 00 00
OPT_INT_54 -1
OPT_INT_51 1
OPT_INT_53 1
OPT_INT_62 1
OPT_INT_64 1
OPT_ID_9 0
OPT_ID_0 68

object ob_0180_0014
id 68
rotation 0,000 -0,454 0,000 0,891
position 20,781 0,010 -18,984 0,000
item_flag 00 00 00 00 00 00 00 00 00 00 00 00 00 00 00 00 00 00 00 00 04 00 00 00
byte_flag 02 00 00 00 00 00 00 00 00 00 00 00 00 00 00 A0 00 80 FA D9
OPT_INT_54 -1
OPT_INT_51 1
OPT_INT_53 1
OPT_INT_52 0
OPT_INT_55 1

object oa_sit_point
id 67
rotation 0,000 -0,454 0,000 0,891
position 21,672 0,010 -17,750 0,000
item_flag 2A 00 00 00 42 00 00 00 00 00 00 00 06 00 00 00 00 00 00 00 04 00 00 00
byte_flag 02 00 00 00 00 00 00 00 00 00 00 00 00 00 00 20 00 00 00 00
OPT_INT_54 -1
OPT_INT_51 1
OPT_INT_53 1
OPT_INT_62 1
OPT_INT_64 1
OPT_ID_9 0
OPT_ID_0 66

object ob_0180_0014
id 66
rotation 0,000 -0,454 0,000 0,891
position 21,672 0,010 -17,750 0,000
item_flag 00 00 00 00 00 00 00 00 00 00 00 00 00 00 00 00 00 00 00 00 04 00 00 00
byte_flag 02 00 00 00 00 00 00 00 00 00 00 00 00 00 00 A0 00 80 FA D9
OPT_INT_54 -1
OPT_INT_51 1
OPT_INT_53 1
OPT_INT_52 0
OPT_INT_55 1

object oa_sit_point
id 65
rotation 0,000 0,688 0,000 0,725
position -48,281 0,010 -1,189 0,000
item_flag 2A 00 00 00 40 00 00 00 00 00 00 00 06 00 00 00 00 00 00 00 04 00 00 00
byte_flag 02 00 00 00 00 00 00 00 00 00 00 00 00 00 00 20 00 00 00 00
OPT_INT_54 -1
OPT_INT_51 1
OPT_INT_53 1
OPT_INT_62 1
OPT_INT_64 1
OPT_ID_9 0
OPT_ID_0 64

object ob_0180_0014
id 64
rotation 0,000 0,688 0,000 0,725
position -48,281 0,010 -1,189 0,000
item_flag 00 00 00 00 00 00 00 00 00 00 00 00 00 00 00 00 00 00 00 00 04 00 00 00
byte_flag 02 00 00 00 00 00 00 00 00 00 00 00 00 00 00 A0 00 80 FA D9
OPT_INT_54 -1
OPT_INT_51 1
OPT_INT_53 1
OPT_INT_52 0
OPT_INT_55 1

object oa_sit_point
id 63
rotation 0,000 0,853 0,000 0,522
position -47,000 0,010 2,859 0,000
item_flag 2A 00 00 00 3E 00 00 00 00 00 00 00 06 00 00 00 00 00 00 00 04 00 00 00
byte_flag 02 00 00 00 00 00 00 00 00 00 00 00 00 00 00 20 00 00 00 00
OPT_INT_54 -1
OPT_INT_51 1
OPT_INT_53 1
OPT_INT_62 1
OPT_INT_64 1
OPT_ID_9 0
OPT_ID_0 62

object ob_0180_0014
id 62
rotation 0,000 0,853 0,000 0,522
position -47,000 0,010 2,859 0,000
item_flag 00 00 00 00 00 00 00 00 00 00 00 00 00 00 00 00 00 00 00 00 04 00 00 00
byte_flag 02 00 00 00 00 00 00 00 00 00 00 00 00 00 00 A0 00 80 FA D9
OPT_INT_54 -1
OPT_INT_51 1
OPT_INT_53 1
OPT_INT_52 0
OPT_INT_55 1

object oa_sit_point
id 61
rotation 0,000 -0,857 0,000 -0,515
position -31,938 0,010 19,078 0,000
item_flag 2A 00 00 00 3C 00 00 00 00 00 00 00 06 00 00 00 00 00 00 00 04 00 00 00
byte_flag 02 00 00 00 00 00 00 00 00 00 00 00 00 00 00 20 00 00 00 00
OPT_INT_54 -1
OPT_INT_51 1
OPT_INT_53 1
OPT_INT_62 1
OPT_INT_64 1
OPT_ID_9 0
OPT_ID_0 60

object ob_0180_0014
id 60
rotation 0,000 -0,857 0,000 -0,515
position -31,938 0,010 19,078 0,000
item_flag 00 00 00 00 00 00 00 00 00 00 00 00 00 00 00 00 00 00 00 00 04 00 00 00
byte_flag 02 00 00 00 00 00 00 00 00 00 00 00 00 00 00 A0 00 80 FA D9
OPT_INT_54 -1
OPT_INT_51 1
OPT_INT_53 1
OPT_INT_52 0
OPT_INT_55 1

object oa_sit_point
id 59
rotation 0,000 -0,927 0,000 -0,375
position -31,000 0,010 20,406 0,000
item_flag 2A 00 00 00 3A 00 00 00 00 00 00 00 06 00 00 00 00 00 00 00 04 00 00 00
byte_flag 02 00 00 00 00 00 00 00 00 00 00 00 00 00 00 20 00 00 00 00
OPT_INT_54 -1
OPT_INT_51 1
OPT_INT_53 1
OPT_INT_62 1
OPT_INT_64 1
OPT_ID_9 0
OPT_ID_0 58

object ob_0180_0014
id 58
rotation 0,000 -0,927 0,000 -0,375
position -31,000 0,010 20,406 0,000
item_flag 00 00 00 00 00 00 00 00 00 00 00 00 00 00 00 00 00 00 00 00 04 00 00 00
byte_flag 02 00 00 00 00 00 00 00 00 00 00 00 00 00 00 A0 00 80 FA D9
OPT_INT_54 -1
OPT_INT_51 1
OPT_INT_53 1
OPT_INT_52 0
OPT_INT_55 1

object oa_sit_point
id 57
rotation 0,000 -0,976 0,000 -0,216
position -29,672 0,010 21,359 0,000
item_flag 2A 00 00 00 38 00 00 00 00 00 00 00 06 00 00 00 00 00 00 00 04 00 00 00
byte_flag 02 00 00 00 00 00 00 00 00 00 00 00 00 00 00 20 00 00 00 00
OPT_INT_54 -1
OPT_INT_51 1
OPT_INT_53 1
OPT_INT_62 1
OPT_INT_64 1
OPT_ID_9 0
OPT_ID_0 56

object ob_0180_0014
id 56
rotation 0,000 -0,976 0,000 -0,216
position -29,672 0,010 21,359 0,000
item_flag 00 00 00 00 00 00 00 00 00 00 00 00 00 00 00 00 00 00 00 00 04 00 00 00
byte_flag 02 00 00 00 00 00 00 00 00 00 00 00 00 00 00 A0 00 80 FA D9
OPT_INT_54 -1
OPT_INT_51 1
OPT_INT_53 1
OPT_INT_52 0
OPT_INT_55 1

object oa_sit_point
id 55
rotation 0,000 -0,998 0,000 -0,061
position -28,125 0,010 21,859 0,000
item_flag 2A 00 00 00 36 00 00 00 00 00 00 00 06 00 00 00 00 00 00 00 04 00 00 00
byte_flag 02 00 00 00 00 00 00 00 00 00 00 00 00 00 00 20 00 00 00 00
OPT_INT_54 -1
OPT_INT_51 1
OPT_INT_53 1
OPT_INT_62 1
OPT_INT_64 1
OPT_ID_9 0
OPT_ID_0 54

object ob_0180_0014
id 54
rotation 0,000 -0,998 0,000 -0,061
position -28,125 0,010 21,859 0,000
item_flag 00 00 00 00 00 00 00 00 00 00 00 00 00 00 00 00 00 00 00 00 04 00 00 00
byte_flag 02 00 00 00 00 00 00 00 00 00 00 00 00 00 00 A0 00 80 FA D9
OPT_INT_54 -1
OPT_INT_51 1
OPT_INT_53 1
OPT_INT_52 0
OPT_INT_55 1

object oa_sit_point
id 53
rotation 0,000 -0,996 0,000 0,087
position -26,469 0,010 21,859 0,000
item_flag 2A 00 00 00 34 00 00 00 00 00 00 00 06 00 00 00 00 00 00 00 04 00 00 00
byte_flag 02 00 00 00 00 00 00 00 00 00 00 00 00 00 00 20 00 00 00 00
OPT_INT_54 -1
OPT_INT_51 1
OPT_INT_53 1
OPT_INT_62 1
OPT_INT_64 1
OPT_ID_9 0
OPT_ID_0 52

object ob_0180_0014
id 52
rotation 0,000 -0,996 0,000 0,087
position -26,469 0,010 21,859 0,000
item_flag 00 00 00 00 00 00 00 00 00 00 00 00 00 00 00 00 00 00 00 00 04 00 00 00
byte_flag 02 00 00 00 00 00 00 00 00 00 00 00 00 00 00 A0 00 80 FA D9
OPT_INT_54 -1
OPT_INT_51 1
OPT_INT_53 1
OPT_INT_52 0
OPT_INT_55 1

object oa_sit_point
id 51
rotation 0,000 -0,970 0,000 0,242
position -24,938 0,010 21,375 0,000
item_flag 2A 00 00 00 32 00 00 00 00 00 00 00 06 00 00 00 00 00 00 00 04 00 00 00
byte_flag 02 00 00 00 00 00 00 00 00 00 00 00 00 00 00 20 00 00 00 00
OPT_INT_54 -1
OPT_INT_51 1
OPT_INT_53 1
OPT_INT_62 1
OPT_INT_64 1
OPT_ID_9 0
OPT_ID_0 50

object ob_0180_0014
id 50
rotation 0,000 -0,970 0,000 0,242
position -24,938 0,010 21,375 0,000
item_flag 00 00 00 00 00 00 00 00 00 00 00 00 00 00 00 00 00 00 00 00 04 00 00 00
byte_flag 02 00 00 00 00 00 00 00 00 00 00 00 00 00 00 A0 00 80 FA D9
OPT_INT_54 -1
OPT_INT_51 1
OPT_INT_53 1
OPT_INT_52 0
OPT_INT_55 1

object oa_sit_point
id 49
rotation 0,000 -0,917 0,000 0,399
position -23,578 0,010 20,375 0,000
item_flag 2A 00 00 00 30 00 00 00 00 00 00 00 06 00 00 00 00 00 00 00 04 00 00 00
byte_flag 02 00 00 00 00 00 00 00 00 00 00 00 00 00 00 20 00 00 00 00
OPT_INT_54 -1
OPT_INT_51 1
OPT_INT_53 1
OPT_INT_62 1
OPT_INT_64 1
OPT_ID_9 0
OPT_ID_0 48

object ob_0180_0014
id 48
rotation 0,000 -0,917 0,000 0,399
position -23,578 0,010 20,375 0,000
item_flag 00 00 00 00 00 00 00 00 00 00 00 00 00 00 00 00 00 00 00 00 04 00 00 00
byte_flag 02 00 00 00 00 00 00 00 00 00 00 00 00 00 00 A0 00 80 FA D9
OPT_INT_54 -1
OPT_INT_51 1
OPT_INT_53 1
OPT_INT_52 0
OPT_INT_55 1

object oa_sit_point
id 47
rotation 0,000 -0,848 0,000 0,530
position -22,625 0,010 19,047 0,000
item_flag 2A 00 00 00 2E 00 00 00 00 00 00 00 06 00 00 00 00 00 00 00 04 00 00 00
byte_flag 02 00 00 00 00 00 00 00 00 00 00 00 00 00 00 20 00 00 00 00
OPT_INT_54 -1
OPT_INT_51 1
OPT_INT_53 1
OPT_INT_62 1
OPT_INT_64 1
OPT_ID_9 0
OPT_ID_0 46

object ob_0180_0014
id 46
rotation 0,000 -0,848 0,000 0,530
position -22,625 0,010 19,047 0,000
item_flag 00 00 00 00 00 00 00 00 00 00 00 00 00 00 00 00 00 00 00 00 04 00 00 00
byte_flag 02 00 00 00 00 00 00 00 00 00 00 00 00 00 00 A0 00 80 FA D9
OPT_INT_54 -1
OPT_INT_51 1
OPT_INT_53 1
OPT_INT_52 0
OPT_INT_55 1

object oa_sit_point
id 45
rotation 0,000 0,122 0,000 0,992
position -43,906 0,010 -11,227 0,000
item_flag 2A 00 00 00 2C 00 00 00 00 00 00 00 06 00 00 00 00 00 00 00 04 00 00 00
byte_flag 02 00 00 00 00 00 00 00 00 00 00 00 00 00 00 20 00 00 00 00
OPT_INT_54 -1
OPT_INT_51 1
OPT_INT_53 1
OPT_INT_62 1
OPT_INT_64 1
OPT_ID_9 0
OPT_ID_0 44

object ob_0180_0014
id 44
rotation 0,000 0,122 0,000 0,992
position -43,906 0,010 -11,227 0,000
item_flag 00 00 00 00 00 00 00 00 00 00 00 00 00 00 00 00 00 00 00 00 04 00 00 00
byte_flag 02 00 00 00 00 00 00 00 00 00 00 00 00 00 00 A0 00 80 FA D9
OPT_INT_54 -1
OPT_INT_51 1
OPT_INT_53 1
OPT_INT_52 0
OPT_INT_55 1

object oa_sit_point
id 43
rotation 0,000 0,122 0,000 0,992
position -45,000 0,010 -10,945 0,000
item_flag 2A 00 00 00 2A 00 00 00 00 00 00 00 06 00 00 00 00 00 00 00 04 00 00 00
byte_flag 02 00 00 00 00 00 00 00 00 00 00 00 00 00 00 20 00 00 00 00
OPT_INT_54 -1
OPT_INT_51 1
OPT_INT_53 1
OPT_INT_62 1
OPT_INT_64 1
OPT_ID_9 0
OPT_ID_0 42

object ob_0180_0014
id 42
rotation 0,000 0,122 0,000 0,992
position -45,000 0,010 -10,945 0,000
item_flag 00 00 00 00 00 00 00 00 00 00 00 00 00 00 00 00 00 00 00 00 04 00 00 00
byte_flag 02 00 00 00 00 00 00 00 00 00 00 00 00 00 00 A0 00 80 FA D9
OPT_INT_54 -1
OPT_INT_51 1
OPT_INT_53 1
OPT_INT_52 0
OPT_INT_55 1

object oa_sit_point
id 41
rotation 0,000 0,462 0,000 0,887
position -47,313 0,010 -8,703 0,000
item_flag 2A 00 00 00 28 00 00 00 00 00 00 00 06 00 00 00 00 00 00 00 04 00 00 00
byte_flag 02 00 00 00 00 00 00 00 00 00 00 00 00 00 00 20 00 00 00 00
OPT_INT_54 -1
OPT_INT_51 1
OPT_INT_53 1
OPT_INT_62 1
OPT_INT_64 1
OPT_ID_9 0
OPT_ID_0 40

object ob_0180_0014
id 40
rotation 0,000 0,462 0,000 0,887
position -47,313 0,010 -8,703 0,000
item_flag 00 00 00 00 00 00 00 00 00 00 00 00 00 00 00 00 00 00 00 00 04 00 00 00
byte_flag 02 00 00 00 00 00 00 00 00 00 00 00 00 00 00 A0 00 80 FA D9
OPT_INT_54 -1
OPT_INT_51 1
OPT_INT_53 1
OPT_INT_52 0
OPT_INT_55 1

object oa_sit_point
id 39
rotation 0,000 0,469 0,000 0,883
position -46,594 0,010 -9,773 0,000
item_flag 2A 00 00 00 26 00 00 00 00 00 00 00 06 00 00 00 00 00 00 00 04 00 00 00
byte_flag 02 00 00 00 00 00 00 00 00 00 00 00 00 00 00 20 00 00 00 00
OPT_INT_54 -1
OPT_INT_51 1
OPT_INT_53 1
OPT_INT_62 1
OPT_INT_64 1
OPT_ID_9 0
OPT_ID_0 38

object ob_0180_0014
id 38
rotation 0,000 0,469 0,000 0,883
position -46,594 0,010 -9,773 0,000
item_flag 00 00 00 00 00 00 00 00 00 00 00 00 00 00 00 00 00 00 00 00 04 00 00 00
byte_flag 02 00 00 00 00 00 00 00 00 00 00 00 00 00 00 A0 00 80 FA D9
OPT_INT_54 -1
OPT_INT_51 1
OPT_INT_53 1
OPT_INT_52 0
OPT_INT_55 1

object oa_sit_point
id 37
rotation 0,000 0,688 0,000 0,725
position -48,031 0,010 -6,207 0,000
item_flag 2A 00 00 00 24 00 00 00 00 00 00 00 06 00 00 00 00 00 00 00 04 00 00 00
byte_flag 02 00 00 00 00 00 00 00 00 00 00 00 00 00 00 20 00 00 00 00
OPT_INT_54 -1
OPT_INT_51 1
OPT_INT_53 1
OPT_INT_62 1
OPT_INT_64 1
OPT_ID_9 0
OPT_ID_0 36

object ob_0180_0014
id 36
rotation 0,000 0,688 0,000 0,725
position -48,031 0,010 -6,207 0,000
item_flag 00 00 00 00 00 00 00 00 00 00 00 00 00 00 00 00 00 00 00 00 04 00 00 00
byte_flag 02 00 00 00 00 00 00 00 00 00 00 00 00 00 00 A0 00 80 FA D9
OPT_INT_54 -1
OPT_INT_51 1
OPT_INT_53 1
OPT_INT_52 0
OPT_INT_55 1

object oa_sit_point
id 35
rotation 0,000 0,694 0,000 0,719
position -48,125 0,010 -4,566 0,000
item_flag 2A 00 00 00 22 00 00 00 00 00 00 00 06 00 00 00 00 00 00 00 04 00 00 00
byte_flag 02 00 00 00 00 00 00 00 00 00 00 00 00 00 00 20 00 00 00 00
OPT_INT_54 -1
OPT_INT_51 1
OPT_INT_53 1
OPT_INT_62 1
OPT_INT_64 1
OPT_ID_9 0
OPT_ID_0 34

object ob_0180_0014
id 34
rotation 0,000 0,694 0,000 0,719
position -48,125 0,010 -4,566 0,000
item_flag 00 00 00 00 00 00 00 00 00 00 00 00 00 00 00 00 00 00 00 00 04 00 00 00
byte_flag 02 00 00 00 00 00 00 00 00 00 00 00 00 00 00 A0 00 80 FA D9
OPT_INT_54 -1
OPT_INT_51 1
OPT_INT_53 1
OPT_INT_52 0
OPT_INT_55 1

object oa_sit_point
id 33
rotation 0,000 0,688 0,000 0,725
position -48,188 0,010 -2,908 0,000
item_flag 2A 00 00 00 20 00 00 00 00 00 00 00 06 00 00 00 00 00 00 00 04 00 00 00
byte_flag 02 00 00 00 00 00 00 00 00 00 00 00 00 00 00 20 00 00 00 00
OPT_INT_54 -1
OPT_INT_51 1
OPT_INT_53 1
OPT_INT_62 1
OPT_INT_64 1
OPT_ID_9 0
OPT_ID_0 32

object ob_0180_0014
id 32
rotation 0,000 0,688 0,000 0,725
position -48,188 0,010 -2,908 0,000
item_flag 00 00 00 00 00 00 00 00 00 00 00 00 00 00 00 00 00 00 00 00 04 00 00 00
byte_flag 02 00 00 00 00 00 00 00 00 00 00 00 00 00 00 A0 00 80 FA D9
OPT_INT_54 -1
OPT_INT_51 1
OPT_INT_53 1
OPT_INT_52 0
OPT_INT_55 1

object oa_sit_point
id 31
rotation 0,000 0,853 0,000 0,522
position -47,750 0,010 1,390 0,000
item_flag 2A 00 00 00 1E 00 00 00 00 00 00 00 06 00 00 00 00 00 00 00 04 00 00 00
byte_flag 02 00 00 00 00 00 00 00 00 00 00 00 00 00 00 20 00 00 00 00
OPT_INT_54 -1
OPT_INT_51 1
OPT_INT_53 1
OPT_INT_62 1
OPT_INT_64 1
OPT_ID_9 0
OPT_ID_0 30

object ob_0180_0014
id 30
rotation 0,000 0,853 0,000 0,522
position -47,750 0,010 1,390 0,000
item_flag 00 00 00 00 00 00 00 00 00 00 00 00 00 00 00 00 00 00 00 00 04 00 00 00
byte_flag 02 00 00 00 00 00 00 00 00 00 00 00 00 00 00 A0 00 80 FA D9
OPT_INT_54 -1
OPT_INT_51 1
OPT_INT_53 1
OPT_INT_52 0
OPT_INT_55 1

object oa_sit_point
id 29
rotation 0,000 0,853 0,000 0,522
position -46,250 0,010 4,328 0,000
item_flag 2A 00 00 00 1C 00 00 00 00 00 00 00 06 00 00 00 00 00 00 00 04 00 00 00
byte_flag 02 00 00 00 00 00 00 00 00 00 00 00 00 00 00 20 00 00 00 00
OPT_INT_54 -1
OPT_INT_51 1
OPT_INT_53 1
OPT_INT_62 1
OPT_INT_64 1
OPT_ID_9 0
OPT_ID_0 28

object ob_0180_0014
id 28
rotation 0,000 0,853 0,000 0,522
position -46,250 0,010 4,328 0,000
item_flag 00 00 00 00 00 00 00 00 00 00 00 00 00 00 00 00 00 00 00 00 04 00 00 00
byte_flag 02 00 00 00 00 00 00 00 00 00 00 00 00 00 00 A0 00 80 FA D9
OPT_INT_54 -1
OPT_INT_51 1
OPT_INT_53 1
OPT_INT_52 0
OPT_INT_55 1

object oa_sit_point
id 27
rotation 0,000 0,044 0,000 0,999
position -12,633 0,010 -23,672 0,000
item_flag 2A 00 00 00 1A 00 00 00 00 00 00 00 06 00 00 00 00 00 00 00 04 00 00 00
byte_flag 02 00 00 00 00 00 00 00 00 00 00 00 00 00 00 20 00 00 00 00
OPT_INT_54 -1
OPT_INT_51 1
OPT_INT_53 1
OPT_INT_62 1
OPT_INT_64 1
OPT_ID_9 0
OPT_ID_0 26

object ob_0180_0014
id 26
rotation 0,000 0,044 0,000 0,999
position -12,633 0,010 -23,672 0,000
item_flag 00 00 00 00 00 00 00 00 00 00 00 00 00 00 00 00 00 00 00 00 04 00 00 00
byte_flag 02 00 00 00 00 00 00 00 00 00 00 00 00 00 00 A0 00 80 FA D9
OPT_INT_54 -1
OPT_INT_51 1
OPT_INT_53 1
OPT_INT_52 0
OPT_INT_55 1

object oa_sit_point
id 25
rotation 0,000 0,044 0,000 0,999
position -14,055 0,010 -23,547 0,000
item_flag 2A 00 00 00 18 00 00 00 00 00 00 00 06 00 00 00 00 00 00 00 04 00 00 00
byte_flag 02 00 00 00 00 00 00 00 00 00 00 00 00 00 00 20 00 00 00 00
OPT_INT_54 -1
OPT_INT_51 1
OPT_INT_53 1
OPT_INT_62 1
OPT_INT_64 1
OPT_ID_9 0
OPT_ID_0 24

object ob_0180_0014
id 24
rotation 0,000 0,044 0,000 0,999
position -14,055 0,010 -23,547 0,000
item_flag 00 00 00 00 00 00 00 00 00 00 00 00 00 00 00 00 00 00 00 00 04 00 00 00
byte_flag 02 00 00 00 00 00 00 00 00 00 00 00 00 00 00 A0 00 80 FA D9
OPT_INT_54 -1
OPT_INT_51 1
OPT_INT_53 1
OPT_INT_52 0
OPT_INT_55 1

object ob_0102_0001
id 150
rotation 0,000 1,000 0,000 0,000
position 0,000 2,500 80,000 0,000
item_flag 00 00 00 00 00 00 00 00 00 00 00 00 00 00 00 00 00 00 00 00 04 00 00 00
byte_flag 02 00 00 00 00 00 00 00 00 00 00 00 00 00 00 20 00 00 00 00
OPT_INT_54 -1
OPT_INT_51 1
OPT_INT_53 1
OPT_INT_52 0
OPT_INT_55 1
OPT_INT_72 1
OPT_FLOAT_60 5
OPT_VERTEX_21 10,000 10,000 8,000 0,000
OPT_VERTEX_18 0,000 0,000 6,000 0,000

